"id_history";"tanggal";"id_tertahan";"nama_barang";"code_barang";"toko_cabang";"stok_dibeli";"stok_datang";"keterangan"
"44";"2023-10-28";"232";"tes barang";"00150";"gudang bandung";"10";"5";"kurang 5 barang"
"45";"2023-10-28";"232";"tes barang";"00150";"gudang bandung";"5";"6";"asdf"
"46";"2023-10-28";"234";"tes barang";"00150";"gudang bandung";"3";"1";"adsf"
"47";"2023-10-28";"233";"tes barang";"00150";"gudang bandung";"1";"0";"adsf"
"48";"2023-10-28";"234";"tes barang";"00150";"gudang bandung";"2";"1";"datang kurang"
"49";"2023-10-28";"234";"tes barang";"00150";"gudang bandung";"1";"1";"asdf"
"50";"2023-11-02";"235";"collagen";"00151";"gudang bandung";"50";"45";"321"
"51";"2023-11-02";"235";"collagen";"00151";"gudang bandung";"5";"5";"hjh"
"52";"2023-11-02";"236";"collagen";"00151";"gudang bandung";"1";"1";"ghh"
"53";"2023-11-07";"238";"Hotto Purto Pouch";"00124";"gudang bandung";"15";"14";"satu kelebihan input"
"54";"2023-11-08";"241";"Roove Blueberi isi 10";"00121";"gudang bandung";"7";"7";"ee"
"55";"2023-11-08";"240";"Kopi SLB Sachet";"00030";"gudang bandung";"6";"6";"cc"
"56";"2023-11-08";"239";"Roove Blueberi isi 20";"00097";"gudang bandung";"31";"31";"cc"
"57";"2023-11-08";"238";"Hotto Purto Pouch";"00124";"gudang bandung";"1";"1";"cc"
"58";"2023-11-08";"237";"Hotto Purto Pouch";"00124";"gudang bandung";"15";"15";"cc"
"59";"2023-11-13";"242";"Hotto Purto Pouch";"00124";"gudang bandung";"46";"46";"zzz"
"60";"2023-11-13";"250";"Flimburn";"00024";"gudang bandung";"4";"4";"dd"
"61";"2023-11-13";"249";"Madu Lamain";"00048";"gudang bandung";"26";"26";"dd"
"62";"2023-11-13";"245";"Golo Royal Jelly Box";"00141";"gudang bandung";"35";"35";"dd"
"63";"2023-11-13";"246";"Madu Vitagerd";"00045";"gudang bandung";"17";"17";"stok"
"64";"2023-11-13";"248";"Mganik 3Peptide";"00118";"gudang bandung";"4";"4";"stok"
"65";"2023-11-13";"247";"Madu Dukosam";"00047";"gudang bandung";"1";"1";"stok"
"66";"2023-11-13";"244";"Kopi SLB Box";"00029";"gudang bandung";"4";"4";"stok"
"67";"2023-11-13";"243";"Kopi SLB Box";"00029";"gudang bandung";"4";"4";"stok"
"68";"2023-11-13";"233";"tes barang";"00150";"gudang bandung";"1";"0";"test"
"69";"2023-11-14";"251";"Multigrain 500gr";"00001";"gudang bandung";"54";"54";"stok"
"70";"2023-11-17";"254";"Metafiber Jeruk";"00002";"gudang bandung";"20";"20";"stok"
"71";"2023-11-17";"253";"Metafiber Leci";"00003";"gudang bandung";"29";"29";"stok"
"72";"2023-11-18";"255";"Flimty Mango Box";"00010";"gudang bandung";"49";"49";"stok"
"73";"2023-11-18";"256";"Flimty Raspberry Box";"00008";"gudang bandung";"24";"24";"stok"
"74";"2023-11-18";"252";"Flimty Raspberry Box";"00008";"gudang bandung";"30";"0";"salah input"
"75";"2023-11-18";"257";"Flimty Blackcurrant Box";"00006";"gudang bandung";"53";"53";"stok"
"76";"2023-11-18";"258";"Golo Royal Jelly Box";"00141";"gudang bandung";"28";"28";"stok"
"77";"2023-11-18";"259";"Tumblr Nice";"00062";"gudang bandung";"29";"29";"stok"
"78";"2023-11-18";"260";"Botol Kaca";"00137";"gudang bandung";"41";"41";"stok"
"79";"2023-11-18";"261";"Kopi SLB Box";"00029";"gudang bandung";"45";"45";"stok"
"80";"2023-11-18";"297";"Propolis Hepro";"00134";"gudang bandung";"8";"8";"stok"
"81";"2023-11-18";"296";"Susu Kambing Skygoat";"00133";"gudang bandung";"9";"9";"stok"
"82";"2023-11-18";"295";"Roove Blueberi isi 50";"00098";"gudang bandung";"16";"16";"stok"
"83";"2023-11-18";"294";"FR-Gluko";"00064";"gudang bandung";"1";"1";"stok"
"84";"2023-11-18";"293";"Amrat";"00063";"gudang bandung";"38";"38";"stok"
"85";"2023-11-18";"292";"Madu Gutamin";"00077";"gudang bandung";"4";"4";"stok"
"86";"2023-11-18";"291";"Madu Gurahfit";"00076";"gudang bandung";"17";"17";"stok"
"87";"2023-11-18";"290";"Slimsure Kapsul";"00059";"gudang bandung";"14";"14";"stok"
"88";"2023-11-18";"289";"Slimsure Fiber Box";"00057";"gudang bandung";"32";"32";"stok"
"89";"2023-11-18";"288";"Balans Pure Tub";"00056";"gudang bandung";"2";"2";"stok"
"90";"2023-11-18";"287";"Balans Lite Tub";"00054";"gudang bandung";"9";"9";"stok"
"91";"2023-11-18";"286";"Balans Recharge Sachet";"00051";"gudang bandung";"3";"3";"stok"
"92";"2023-11-18";"285";"Balans Recharge Tub";"00052";"gudang bandung";"33";"33";"stok"
"93";"2023-11-18";"284";"Reglow Serum";"00043";"gudang bandung";"24";"24";"stok"
"94";"2023-11-18";"283";"Reglow Toner";"00042";"gudang bandung";"8";"8";"stok"
"95";"2023-11-18";"281";"Reglow Pouch";"00044";"gudang bandung";"50";"50";"stok"
"96";"2023-11-18";"282";"Reglow Facial Wash";"00041";"gudang bandung";"4";"4";"stok"
"97";"2023-11-18";"280";"Hervibe Box";"00037";"gudang bandung";"12";"12";"stok"
"98";"2023-11-18";"279";"Herslim Box";"00035";"gudang bandung";"2";"2";"stok"
"99";"2023-11-18";"278";"Kopi SLB Box";"00029";"gudang bandung";"2";"2";"stok"
"100";"2023-11-18";"277";"Joyjus Kapsul";"00028";"gudang bandung";"54";"54";"stok"
"101";"2023-11-18";"276";"Joyjus Sachet";"00027";"gudang bandung";"4";"4";"stok"
"102";"2023-11-18";"275";"Joyjus Lime 300gr";"00026";"gudang bandung";"5";"5";"stok"
"103";"2023-11-18";"274";"Flimeal Vanilla Box";"00020";"gudang bandung";"17";"17";"stok"
"104";"2023-11-18";"273";"Flimeal Taro Box";"00018";"gudang bandung";"16";"16";"stok"
"105";"2023-11-18";"272";"Flimeal Strawberry Box";"00016";"gudang bandung";"14";"14";"stok"
"106";"2023-11-18";"271";"Flimeal Coklat Vegan Box";"00014";"gudang bandung";"28";"28";"stok"
"107";"2023-11-18";"270";"Flimeal Coklat Susu Box";"00012";"gudang bandung";"22";"22";"stok"
"108";"2023-11-18";"269";"Flimty Raspberry Box";"00008";"gudang bandung";"5";"5";"stok"
"109";"2023-11-18";"268";"Flimty Blackcurrant Box";"00006";"gudang bandung";"6";"6";"stok"
"110";"2023-11-18";"267";"Golo Royal Jelly Sachet";"00142";"gudang bandung";"2";"2";"stok"
"111";"2023-11-18";"266";"Hotto Purto Sachet";"00125";"gudang bandung";"5";"5";"stok"
"112";"2023-11-18";"265";"Golo Royal Jelly Box";"00141";"gudang bandung";"30";"30";"stok"
"113";"2023-11-18";"264";"Metafiber Jeruk";"00002";"gudang bandung";"51";"51";"stok"
"114";"2023-11-18";"263";"Multigrain Sachet";"00005";"gudang bandung";"11";"11";"stok"
"115";"2023-11-18";"262";"Multigrain 500gr";"00001";"gudang bandung";"51";"51";"stok"
"116";"2023-11-20";"299";"Kondom";"00140";"gudang bandung";"6";"6";"stok"
"117";"2023-11-22";"303";"Mganik 3Peptide";"00118";"gudang bandung";"40";"40";"stok baru"
"118";"2023-11-22";"302";"Metafiber Jeruk";"00002";"gudang bandung";"40";"40";"stok baru"
"119";"2023-11-22";"300";"Hotto Purto Pouch";"00124";"gudang bandung";"30";"30";"stok baru"
"120";"2023-11-22";"301";"Metafiber Leci";"00003";"gudang bandung";"20";"20";"stok baru"
"121";"2023-11-28";"304";"Kondom";"00140";"gudang bandung";"60";"60";"baru"
"122";"2023-11-28";"305";"Hotto Purto Pouch";"00124";"gudang bandung";"14";"14";"stok"
"123";"2023-12-02";"306";"Hotto Purto Pouch";"00124";"gudang bandung";"30";"30";"baru"
"124";"2023-12-12";"308";"Golo Royal Jelly Box";"00141";"gudang bandung";"120";"120";"belanja"
"125";"2023-12-12";"307";"Kopi SLB Box";"00029";"gudang bandung";"48";"48";"belanja"
"126";"2023-12-12";"298";"Kondom";"00140";"gudang bandung";"6";"6";"salah input"
"127";"2023-12-13";"310";"Shaker Flimty";"00100";"gudang bandung";"40";"40";"stok"
"128";"2023-12-15";"309";"Shaker Oren";"00138";"gudang bandung";"50";"50";"belanja"
"129";"2023-12-17";"316";"collagen";"00151";"Ngurangin stok lebih";"1";"1";"asdf"
"130";"2023-12-17";"252";"Flimty Raspberry Box";"00008";"gudang bandung";"30";"29";"gvsdvd"
"131";"2023-12-20";"324";"Madu Vitagerd";"00045";"gudang bandung";"2";"2";"stok lama"
"132";"2023-12-23";"327";"Mganik 3Peptide";"00118";"gudang bandung";"20";"20";"baru"
"133";"2023-12-23";"326";"Metafiber Leci";"00003";"gudang bandung";"40";"40";"baru"
"134";"2023-12-23";"325";"Multigrain 1500gr";"00004";"gudang bandung";"12";"12";"baru"
"135";"2023-12-23";"328";"Roove Blueberi isi 50";"00098";"gudang bandung";"17";"17";"stok"
"136";"2023-12-25";"329";"Hotto Purto Pouch";"00124";"gudang bandung";"30";"30";"fdj"
"137";"2023-12-25";"330";"Madu Vitagerd";"00045";"gudang bandung";"20";"20";"baru"
"138";"2023-12-25";"339";"Propolis Hepro";"00134";"gudang bandung";"20";"20";"baru"
"139";"2023-12-25";"338";"Madu Zestmag";"00085";"gudang bandung";"2";"2";"baru"
"140";"2023-12-25";"337";"Balans Active Tub";"00050";"gudang bandung";"10";"10";"baru"
"141";"2023-12-25";"336";"Madu Dukosam";"00047";"gudang bandung";"5";"5";"baru"
"142";"2023-12-25";"335";"Sopalpha Box";"00022";"gudang bandung";"20";"20";"baru"
"143";"2023-12-25";"334";"Madu Bajakah Borneo";"00060";"gudang bandung";"5";"5";"baru"
"144";"2023-12-25";"333";"Madu Gutamin";"00077";"gudang bandung";"5";"5";"baru"
"145";"2023-12-25";"332";"Reglow Cream";"00040";"gudang bandung";"10";"10";"baru"
"146";"2023-12-25";"331";"Madu Ratik";"00046";"gudang bandung";"5";"5";"baru"
"147";"2024-01-01";"340";"Multigrain 500gr";"00001";"Gudang Bekasi";"90";"90";"Opname 2024"
"148";"2024-01-01";"400";"Madu Vitomata";"00084";"Gudang Bekasi";"19";"19";"Opname 2024"
"149";"2024-01-01";"399";"Madu Prowasir";"00083";"Gudang Bekasi";"11";"11";"Opname 2024"
"150";"2024-01-01";"398";"Madu Nurutenz";"00081";"Gudang Bekasi";"3";"3";"Opname 2024"
"151";"2024-01-01";"397";"Madu Natures Sleepy";"00080";"Gudang Bekasi";"26";"26";"Opname 2024"
"152";"2024-01-01";"396";"Madu Jamkorat";"00079";"Gudang Bekasi";"11";"11";"Opname 2024"
"153";"2024-01-01";"395";"Madu Gutamin";"00077";"Gudang Bekasi";"220";"220";"Opname 2024"
"154";"2024-01-01";"394";"Madu Gurahfit";"00076";"Gudang Bekasi";"9";"9";"Opname 2024"
"155";"2024-01-01";"393";"Madu Dukosam";"00047";"Gudang Bekasi";"113";"113";"Opname 2024"
"156";"2024-01-01";"392";"Madu Cardiven";"00073";"Gudang Bekasi";"20";"20";"Opname 2024"
"157";"2024-01-01";"391";"Madu Bajakah Borneo";"00060";"Gudang Bekasi";"46";"46";"Opname 2024"
"158";"2024-01-01";"390";"Slimsure Kapsul";"00059";"Gudang Bekasi";"100";"100";"Opname 2024"
"159";"2024-01-01";"389";"Slimsure Fiber Sachet";"00058";"Gudang Bekasi";"1";"1";"Opname 2024"
"160";"2024-01-01";"388";"Slimsure Fiber Box";"00057";"Gudang Bekasi";"379";"379";"Opname 2024"
"161";"2024-01-01";"387";"Balans Pure Tub";"00056";"Gudang Bekasi";"41";"41";"Opname 2024"
"162";"2024-01-01";"386";"Balans Pure Tub";"00056";"Gudang Bekasi";"41";"41";"Opname 2024"
"163";"2024-01-01";"385";"Balans Pure Sachet";"00055";"Gudang Bekasi";"8";"8";"Opname 2024"
"164";"2024-01-01";"384";"Balans Lite Tub";"00054";"Gudang Bekasi";"36";"36";"Opname 2024"
"165";"2024-01-01";"383";"Balans Lite Sachet";"00053";"Gudang Bekasi";"13";"13";"Opname 2024"
"166";"2024-01-01";"382";"Balans Recharge Tub";"00052";"Gudang Bekasi";"67";"67";"Opname 2024"
"167";"2024-01-01";"381";"Balans Active Tub";"00050";"Gudang Bekasi";"114";"114";"Opname 2024"
"168";"2024-01-01";"380";"Balans Active Sachet";"00049";"Gudang Bekasi";"13";"13";"Opname 2024"
"169";"2024-01-01";"379";"Hotto Purto Sachet";"00125";"Gudang Bekasi";"4";"4";"Opname 2024"
"170";"2024-01-01";"378";"Hotto Purto Pouch";"00124";"Gudang Bekasi";"312";"312";"Opname 2024"
"171";"2024-01-01";"377";"Mganik 3Peptide";"00118";"Gudang Bekasi";"75";"75";"Opname 2024"
"172";"2024-01-01";"376";"Reglow Pouch";"00044";"Gudang Bekasi";"100";"100";"Opname 2024"
"173";"2024-01-01";"375";"Reglow Serum";"00043";"Gudang Bekasi";"25";"25";"Opname 2024"
"174";"2024-01-01";"374";"Reglow Toner";"00042";"Gudang Bekasi";"101";"101";"Opname 2024"
"175";"2024-01-01";"373";"Reglow Facial Wash";"00041";"Gudang Bekasi";"159";"159";"Opname 2024"
"176";"2024-01-01";"372";"Reglow Cream";"00040";"Gudang Bekasi";"76";"76";"Opname 2024"
"177";"2024-01-01";"371";"Herlean";"00039";"Gudang Bekasi";"15";"15";"Opname 2024"
"178";"2024-01-01";"370";"Hervibe Box";"00037";"Gudang Bekasi";"19";"19";"Opname 2024"
"179";"2024-01-01";"422";"Elmier Kolagen Box";"00069";"Gudang Bekasi";"1";"1";"stok opname 2024"
"180";"2024-01-01";"421";"Beaudelab Collagen Powder Drink";"00152";"Gudang Bekasi";"1";"1";"stok opname 2024"
"181";"2024-01-01";"420";"Alphafiber";"00136";"Gudang Bekasi";"5";"5";"stok opname 2024"
"182";"2024-01-01";"419";"Verazui";"00135";"Gudang Bekasi";"43";"43";"stok opname 2024"
"183";"2024-01-01";"418";"Prime";"00128";"Gudang Bekasi";"13";"13";"stok opname 2024"
"184";"2024-01-01";"417";"Veminine";"00127";"Gudang Bekasi";"4";"4";"stok opname 2024"
"185";"2024-01-01";"416";"Propolis Hepro";"00134";"Gudang Bekasi";"96";"96";"stok opname 2024"
"186";"2024-01-01";"415";"Roove Blueberi isi 50";"00098";"Gudang Bekasi";"66";"66";"stok opname 2024"
"187";"2024-01-01";"414";"Roove Blueberi isi 20";"00097";"Gudang Bekasi";"56";"56";"stok opname 2024"
"188";"2024-01-01";"413";"Olimex Kapsul Gabus";"00092";"Gudang Bekasi";"29";"29";"stok opname 2024"
"189";"2024-01-01";"412";"Tridax Procumbens Kapsul";"00103";"Gudang Bekasi";"20";"20";"stok opname 2024"
"190";"2024-01-01";"411";"Renarkos";"00096";"Gudang Bekasi";"20";"20";"stok opname 2024"
"191";"2024-01-01";"410";"Grapto Plus";"00072";"Gudang Bekasi";"15";"15";"stok opname 2024"
"192";"2024-01-01";"409";"Esbi Orevin";"00071";"Gudang Bekasi";"20";"20";"stok opname 2024"
"193";"2024-01-01";"408";"Diabcon";"00068";"Gudang Bekasi";"25";"25";"stok opname 2024"
"194";"2024-01-01";"407";"FR-Gluko";"00064";"Gudang Bekasi";"551";"551";"stok opname 2024"
"195";"2024-01-01";"406";"Amrat";"00063";"Gudang Bekasi";"87";"87";"stok opname 2024"
"196";"2024-01-01";"405";"Madu Vitagerd";"00045";"Gudang Bekasi";"215";"215";"stok opname 2024"
"197";"2024-01-01";"404";"Madu Ratik";"00046";"Gudang Bekasi";"44";"44";"stok opname 2024"
"198";"2024-01-01";"403";"Madu Lamain";"00048";"Gudang Bekasi";"119";"119";"stok opname 2024"
"199";"2024-01-01";"402";"Madu Zestmag";"00085";"Gudang Bekasi";"6";"6";"stok opname 2024"
"200";"2024-01-01";"401";"Reglow Night Cream";"00149";"Gudang Bekasi";"54";"54";"stok opname 2024"
"201";"2024-01-01";"369";"Herslim Sachet";"00036";"Gudang Bekasi";"27";"27";"stok opname 2024"
"202";"2024-01-01";"368";"Herslim Box";"00035";"Gudang Bekasi";"2";"2";"stok opname 2024"
"203";"2024-01-01";"367";"Golo Royal Jelly Sachet";"00142";"Gudang Bekasi";"3";"3";"stok opname 2024"
"204";"2024-01-01";"366";"Golo Royal Jelly Box";"00141";"Gudang Bekasi";"195";"195";"stok opname 2024"
"205";"2024-01-01";"365";"Kopi SLB Box";"00029";"Gudang Bekasi";"283";"283";"stok opname 2024"
"206";"2024-01-01";"364";"Joyjus Sachet";"00027";"Gudang Bekasi";"6";"6";"stok opname 2024"
"207";"2024-01-01";"363";"Joyjus Lime 300gr";"00026";"Gudang Bekasi";"30";"30";"stok opname 2024"
"208";"2024-01-01";"362";"Flimburn";"00024";"Gudang Bekasi";"17";"17";"stok opname 2024"
"209";"2024-01-01";"361";"Sopalpha Sachet";"00023";"Gudang Bekasi";"17";"17";"stok opname 2024"
"210";"2024-01-01";"360";"Sopalpha Box";"00022";"Gudang Bekasi";"25";"25";"stok opname 2024"
"211";"2024-01-01";"359";"Flimeal Vanilla Sachet";"00021";"Gudang Bekasi";"9";"9";"stok opname 2024"
"212";"2024-01-01";"358";"Flimeal Vanilla Box";"00020";"Gudang Bekasi";"29";"29";"stok opname 2024"
"213";"2024-01-01";"357";"Flimeal Taro Sachet";"00019";"Gudang Bekasi";"9";"9";"stok opname 2024"
"214";"2024-01-01";"356";"Flimeal Taro Box";"00018";"Gudang Bekasi";"35";"35";"stok opname 2024"
"215";"2024-01-01";"355";"Flimeal Strawberry Sachet";"00017";"Gudang Bekasi";"11";"11";"stok opname 2024"
"216";"2024-01-01";"354";"Flimeal Strawberry Box";"00016";"Gudang Bekasi";"34";"34";"stok opname 2024"
"217";"2024-01-01";"353";"Flimeal Coklat Vegan Sachet";"00015";"Gudang Bekasi";"16";"16";"stok opname 2024"
"218";"2024-01-01";"352";"Flimeal Coklat Vegan Box";"00014";"Gudang Bekasi";"24";"24";"stok opname 2024"
"219";"2024-01-01";"351";"Flimeal Coklat Susu Box";"00012";"Gudang Bekasi";"46";"46";"stok opname 2024"
"220";"2024-01-01";"350";"Flimty Mango Sachet";"00011";"Gudang Bekasi";"4";"4";"stok opname 2024"
"221";"2024-01-01";"349";"Flimty Mango Box";"00010";"Gudang Bekasi";"53";"53";"stok opname 2024"
"222";"2024-01-01";"348";"Flimty Raspberry Sachet";"00009";"Gudang Bekasi";"1";"1";"stok opname 2024"
"223";"2024-01-01";"347";"Flimty Raspberry Box";"00008";"Gudang Bekasi";"147";"147";"stok opname 2024"
"224";"2024-01-01";"346";"Flimty Blackcurrant Sachet";"00007";"Gudang Bekasi";"8";"8";"stok opname 2024"
"225";"2024-01-01";"345";"Flimty Blackcurrant Box";"00006";"Gudang Bekasi";"111";"111";"stok opname 2024"
"226";"2024-01-01";"344";"Multigrain Sachet";"00005";"Gudang Bekasi";"38";"38";"stok opname 2024"
"227";"2024-01-01";"343";"Multigrain 1500gr";"00004";"Gudang Bekasi";"26";"26";"stok opname 2024"
"228";"2024-01-01";"342";"Metafiber Leci";"00003";"Gudang Bekasi";"155";"155";"stok opname 2024"
"229";"2024-01-01";"341";"Metafiber Jeruk";"00002";"Gudang Bekasi";"207";"207";"stok opname 2024"
"230";"2024-01-01";"423";"Multigrain 500gr";"00001";"Gudang Depok";"17";"17";"Stok Awal"
"231";"2024-01-01";"536";"Kopi SLB Sachet";"00030";"Gudang Bekasi";"1";"1";"opname 2024"
"232";"2024-01-01";"572";"Botol Minum Plastik";"00182";"Gudang Depok";"73";"73";"Stok Awal"
"233";"2024-01-01";"571";"YUV Deodorant Serum";"00181";"Gudang Depok";"4";"4";"Stok Awal"
"234";"2024-01-01";"573";"Balans Recharge Sachet";"00051";"Gudang Bekasi";"1";"1";"opname 2024"
"235";"2024-01-01";"574";"Balans Recharge Sachet";"00051";"Gudang Depok";"1";"1";"opname 2024"
"236";"2024-01-01";"570";"YUV Power Smile";"00180";"Gudang Depok";"4";"4";"Stok Awal"
"237";"2024-01-01";"569";"YUV Hair Mist";"00179";"Gudang Depok";"4";"4";"Stok Awal"
"238";"2024-01-01";"567";"Leher Terapi Nadivit Infrared";"00177";"Gudang Depok";"30";"30";"Stok Awal"
"239";"2024-01-01";"565";"Veminine Cushion Light";"00176";"Gudang Depok";"3";"3";"Stok Awal"
"240";"2024-01-01";"564";"Reglow Night Cream";"00149";"Gudang Depok";"21";"21";"Stok Awal"
"241";"2024-01-01";"563";"Tote Bag Aurora Tebel";"00146";"Gudang Depok";"10";"10";"Stok Awal"
"242";"2024-01-01";"562";"Tote Bag Aurora Tipis";"00145";"Gudang Depok";"58";"58";"Stok Awal"
"243";"2024-01-01";"561";"Botol Aurora";"00144";"Gudang Depok";"15";"15";"Stok Awal"
"244";"2024-01-01";"560";"Pouch Aurora";"00143";"Gudang Depok";"46";"46";"Stok Awal"
"245";"2024-01-01";"559";"Aurora Collagen Box";"00147";"Gudang Depok";"70";"70";"Stok Awal"
"246";"2024-01-01";"558";"Tezzen Mini Kit";"00175";"Gudang Depok";"10";"10";"Stok Awal"
"247";"2024-01-01";"557";"Tezzen Echo";"00174";"Gudang Depok";"6";"6";"Stok Awal"
"248";"2024-01-01";"556";"Tezzen Alpha";"00173";"Gudang Depok";"1";"1";"Stok Awal"
"249";"2024-01-01";"555";"Stevia Gold 10ml";"00172";"Gudang Depok";"17";"17";"Stok Awal"
"250";"2024-01-01";"554";"Sigurah Kapsul";"00171";"Gudang Depok";"14";"14";"Stok Awal"
"251";"2024-01-01";"553";"Nigpro 100 kapsul";"00170";"Gudang Depok";"1";"1";"Stok Awal"
"252";"2024-01-01";"552";"Master Mass 2 LBS";"00169";"Gudang Depok";"22";"22";"Stok Awal"
"253";"2024-01-01";"551";"Gelas Plastik";"00168";"Gudang Depok";"356";"356";"Stok Awal"
"254";"2024-01-01";"550";"Elmier Kolagen Box";"00069";"Gudang Depok";"21";"21";"Stok Awal"
"255";"2024-01-01";"549";"Tuas Dongkrak Mobil";"00167";"Gudang Depok";"13";"13";"Stok Awal"
"256";"2024-01-01";"548";"Daylisz Stevia";"00166";"Gudang Depok";"8";"8";"Stok Awal"
"257";"2024-01-01";"547";"Clorismen Sabun 80gram";"00115";"Gudang Depok";"10";"10";"Stok Awal"
"258";"2024-01-01";"546";"Clorismen Sabun 40gram";"00116";"Gudang Depok";"8";"8";"Stok Awal"
"259";"2024-01-01";"545";"Clorismen Men SC Serum";"00112";"Gudang Depok";"8";"8";"Stok Awal"
"260";"2024-01-01";"544";"Clorismen Men Brightening Cream";"00109";"Gudang Depok";"11";"11";"Stok Awal"
"261";"2024-01-01";"543";"Clorismen Gel Acno";"00114";"Gudang Depok";"9";"9";"Stok Awal"
"262";"2024-01-01";"542";"Clorismen Brightening Serum";"00110";"Gudang Depok";"7";"7";"Stok Awal"
"263";"2024-01-01";"541";"Clorismen Beard Serum";"00111";"Gudang Depok";"16";"16";"Stok Awal"
"264";"2024-01-01";"540";"BXN Whey 2 LBS";"00165";"Gudang Depok";"16";"16";"Stok Awal"
"265";"2024-01-01";"539";"BXN Isolate 2 LBS";"00164";"Gudang Depok";"1";"1";"Stok Awal"
"266";"2024-01-01";"538";"BXN Gainer 2 LBS";"00163";"Gudang Depok";"13";"13";"Stok Awal"
"267";"2024-01-01";"537";"British Propolis";"00162";"Gudang Depok";"2";"2";"Stok Awal"
"268";"2024-01-01";"535";"Binasol";"00067";"Gudang Depok";"1";"1";"Stok Awal"
"269";"2024-01-01";"534";"Beaudelab Minty Charcoal";"00161";"Gudang Depok";"25";"25";"Stok Awal"
"270";"2024-01-01";"533";"Beaudelab Body Scrub";"00160";"Gudang Depok";"4";"4";"Stok Awal"
"271";"2024-01-01";"532";"adapter kunci dongkrak";"00159";"Gudang Depok";"5";"5";"Stok Awal"
"272";"2024-01-01";"531";"Alphafiber";"00136";"Gudang Depok";"8";"8";"Stok Awal"
"273";"2024-01-01";"530";"Verazui";"00135";"Gudang Depok";"39";"39";"Stok Awal"
"274";"2024-01-01";"529";"Dynamic Coffee Sachet";"00132";"Gudang Depok";"3";"3";"Stok Awal"
"275";"2024-01-01";"527";"Dynamic Coffee";"00131";"Gudang Depok";"5";"5";"Stok Awal"
"276";"2024-01-01";"526";"Soona Collagen Box";"00129";"Gudang Depok";"4";"4";"Stok Awal"
"277";"2024-01-01";"525";"Veminine Cushion Beige";"00158";"Gudang Depok";"4";"4";"Stok Awal"
"278";"2024-01-01";"524";"Veminine Creme";"00157";"Gudang Depok";"2";"2";"Stok Awal"
"279";"2024-01-01";"523";"Parfum Vleo";"00065";"Gudang Depok";"125";"125";"Stok Awal"
"280";"2024-01-01";"522";"Tumblr Nice";"00062";"Gudang Depok";"30";"30";"Stok Awal"
"281";"2024-01-01";"521";"Shaker Mganik";"00102";"Gudang Depok";"20";"20";"Stok Awal"
"282";"2024-01-01";"520";"Shaker Herwell";"00101";"Gudang Depok";"56";"56";"Stok Awal"
"283";"2024-01-01";"519";"Shaker Flimty";"00100";"Gudang Depok";"51";"51";"Stok Awal"
"284";"2024-01-01";"518";"Reglow Pouch";"00044";"Gudang Depok";"23";"23";"Stok Awal"
"285";"2024-01-01";"517";"Kondom";"00140";"Gudang Depok";"74";"74";"Stok Awal"
"286";"2024-01-01";"515";"Propolis Hepro";"00134";"Gudang Depok";"20";"20";"Stok Awal"
"287";"2024-01-01";"514";"Susu Kambing Skygoat";"00133";"Gudang Depok";"209";"209";"Stok Awal"
"288";"2024-01-01";"513";"Baby Gold 0,002gr";"00066";"Gudang Depok";"37";"37";"Stok Awal"
"289";"2024-01-01";"512";"Roove Blueberi Sachet";"00099";"Gudang Depok";"5";"5";"Stok Awal"
"290";"2024-01-01";"511";"Roove Blueberi isi 20";"00097";"Gudang Depok";"70";"70";"Stok Awal"
"291";"2024-01-01";"510";"Polthrus Sachet";"00095";"Gudang Depok";"7";"7";"Stok Awal"
"292";"2024-01-01";"509";"Polthrus Box";"00094";"Gudang Depok";"12";"12";"Stok Awal"
"293";"2024-01-01";"508";"Olimex Kapsul Gabus";"00092";"Gudang Depok";"4";"4";"Stok Awal"
"294";"2024-01-01";"507";"Nadivit Box";"00091";"Gudang Depok";"19";"19";"Stok Awal"
"295";"2024-01-01";"506";"Momsy Susu Sachet";"00123";"Gudang Depok";"14";"14";"Stok Awal"
"296";"2024-01-01";"505";"Momsy Susu Box";"00122";"Gudang Depok";"25";"25";"Stok Awal"
"297";"2024-01-01";"504";"Momsy Kapsul";"00090";"Gudang Depok";"50";"50";"Stok Awal"
"298";"2024-01-01";"503";"Tridax Procumbens Kapsul";"00103";"Gudang Depok";"3";"3";"Stok Awal"
"299";"2024-01-01";"502";"Renarkos";"00096";"Gudang Depok";"19";"19";"Stok Awal"
"300";"2024-01-01";"501";"Grapto Plus";"00156";"Gudang Depok";"10";"10";"Stok Awal"
"301";"2024-01-01";"500";"Esbi Orevin";"00071";"Gudang Depok";"11";"11";"Stok Awal"
"302";"2024-01-01";"499";"Diabcon";"00068";"Gudang Depok";"14";"14";"Stok Awal"
"303";"2024-01-01";"498";"FR-Gluko";"00064";"Gudang Depok";"93";"93";"Stok Awal"
"304";"2024-01-01";"497";"Amrat";"00063";"Gudang Depok";"163";"163";"Stok Awal"
"305";"2024-01-01";"496";"Madu Vitagerd";"00045";"Gudang Depok";"103";"103";"Stok Awal"
"306";"2024-01-01";"495";"Madu Tongkat Ali";"00105";"Gudang Depok";"25";"25";"Stok Awal"
"307";"2024-01-01";"494";"Madu Ratik";"00046";"Gudang Depok";"80";"80";"Stok Awal"
"308";"2024-01-01";"492";"Madu Naumax";"00104";"Gudang Depok";"8";"8";"Stok Awal"
"309";"2024-01-01";"491";"Madu Lamain";"00048";"Gudang Depok";"15";"15";"Stok Awal"
"310";"2024-01-01";"490";"Madu Kanzmag";"00119";"Gudang Depok";"25";"25";"Stok Awal"
"311";"2024-01-01";"488";"Madu Hijau";"00108";"Gudang Depok";"7";"7";"Stok Awal"
"312";"2024-01-01";"487";"Madu Zestmag";"00085";"Gudang Depok";"23";"23";"Stok Awal"
"313";"2024-01-01";"486";"Madu Vitomata";"00084";"Gudang Depok";"30";"30";"Stok Awal"
"314";"2024-01-01";"485";"Madu Prowasir";"00083";"Gudang Depok";"92";"92";"Stok Awal"
"315";"2024-01-01";"484";"Madu Nurutenz";"00081";"Gudang Depok";"7";"7";"Stok Awal"
"316";"2024-01-01";"483";"Madu Natures Sleepy";"00080";"Gudang Depok";"48";"48";"Stok Awal"
"317";"2024-01-01";"482";"Madu Jamkorat";"00079";"Gudang Depok";"6";"6";"Stok Awal"
"318";"2024-01-01";"481";"Madu Herbapros";"00078";"Gudang Depok";"14";"14";"Stok Awal"
"319";"2024-01-01";"480";"Madu Gutamin";"00077";"Gudang Depok";"35";"35";"Stok Awal"
"320";"2024-01-01";"479";"Madu Gurahfit";"00076";"Gudang Depok";"16";"16";"Stok Awal"
"321";"2024-01-01";"478";"Madu Gerd Hero";"00155";"Gudang Depok";"48";"48";"Stok Awal"
"322";"2024-01-01";"477";"Madu Dukosam";"00047";"Gudang Depok";"24";"24";"Stok Awal"
"323";"2024-01-01";"476";"Madu Cardiven";"00073";"Gudang Depok";"21";"21";"Stok Awal"
"324";"2024-01-01";"475";"Madu Biomaag";"00061";"Gudang Depok";"12";"12";"Stok Awal"
"325";"2024-01-01";"474";"Madu Bajakah Borneo";"00060";"Gudang Depok";"118";"118";"Stok Awal"
"326";"2024-01-01";"473";"Madu Bajakah Alkanzu";"00154";"Gudang Depok";"12";"12";"Stok Awal"
"327";"2024-01-01";"472";"Slimsure Kapsul";"00059";"Gudang Depok";"91";"91";"Stok Awal"
"328";"2024-01-01";"471";"Slimsure Fiber Sachet";"00058";"Gudang Depok";"3";"3";"Stok Awal"
"329";"2024-01-01";"575";"Kondom";"00140";"Gudang Bekasi";"10";"10";"opname"
"330";"2024-01-01";"470";"Slimsure Fiber Box";"00057";"Gudang Depok";"237";"237";"Stok Awal"
"331";"2024-01-01";"469";"Balans Pure Tub";"00056";"Gudang Depok";"18";"18";"Stok Awal"
"332";"2024-01-01";"468";"Balans Pure Sachet";"00055";"Gudang Depok";"12";"12";"Stok Awal"
"333";"2024-01-01";"467";"Balans Lite Tub";"00054";"Gudang Depok";"6";"6";"Stok Awal"
"334";"2024-01-01";"466";"Balans Lite Sachet";"00053";"Gudang Depok";"15";"15";"Stok Awal"
"335";"2024-01-01";"465";"Balans Recharge Tub";"00052";"Gudang Depok";"30";"30";"Stok Awal"
"336";"2024-01-01";"464";"Balans Active Tub";"00050";"Gudang Depok";"29";"29";"Stok Awal"
"337";"2024-01-01";"463";"Balans Active Sachet";"00049";"Gudang Depok";"8";"8";"Stok Awal"
"338";"2024-01-01";"462";"Reglow Serum";"00043";"Gudang Depok";"2";"2";"Stok Awal"
"339";"2024-01-01";"461";"Reglow Toner";"00042";"Gudang Depok";"114";"114";"Stok Awal"
"340";"2024-01-01";"460";"Reglow Facial Wash";"00041";"Gudang Depok";"45";"45";"Stok Awal"
"341";"2024-01-01";"459";"Reglow Cream";"00040";"Gudang Depok";"6";"6";"Stok Awal"
"342";"2024-01-01";"458";"Herlean";"00039";"Gudang Depok";"15";"15";"Stok Awal"
"343";"2024-01-01";"457";"Hervibe Sachet";"00038";"Gudang Depok";"11";"11";"Stok Awal"
"344";"2024-01-01";"456";"Hervibe Box";"00037";"Gudang Depok";"7";"7";"Stok Awal"
"345";"2024-01-01";"455";"Herslim Sachet";"00036";"Gudang Depok";"29";"29";"Stok Awal"
"346";"2024-01-01";"454";"Herslim Box";"00035";"Gudang Depok";"6";"6";"Stok Awal"
"347";"2024-01-01";"453";"SLB Man Sachet";"00032";"Gudang Depok";"1";"1";"Stok Awal"
"348";"2024-01-01";"452";"Kopi SLB Sachet";"00030";"Gudang Depok";"8";"8";"Stok Awal"
"349";"2024-01-01";"451";"Kopi SLB Box";"00029";"Gudang Depok";"21";"21";"Stok Awal"
"350";"2024-01-01";"450";"Joyjus Fiber 300gram 1box isi 15s";"00153";"Gudang Depok";"16";"16";"Stok Awal"
"351";"2024-01-01";"449";"Joyjus Fiber 500gr";"00025";"Gudang Depok";"4";"4";"Stok Awal"
"352";"2024-01-01";"448";"Sopalpha Sachet";"00023";"Gudang Depok";"15";"15";"Stok Awal"
"353";"2024-01-01";"447";"Sopalpha Box";"00022";"Gudang Depok";"12";"12";"Stok Awal"
"354";"2024-01-01";"445";"Flimburn";"00024";"Gudang Depok";"36";"36";"Stok Awal"
"355";"2024-01-01";"444";"Flimeal Vanilla Sachet";"00021";"Gudang Depok";"9";"9";"Stok Awal"
"356";"2024-01-01";"443";"Flimeal Vanilla Box";"00020";"Gudang Depok";"25";"25";"Stok Awal"
"357";"2024-01-01";"442";"Flimeal Taro Sachet";"00019";"Gudang Depok";"4";"4";"Stok Awal"
"358";"2024-01-01";"441";"Flimeal Taro Box";"00018";"Gudang Depok";"35";"35";"Stok Awal"
"359";"2024-01-01";"440";"Flimeal Strawberry Box";"00016";"Gudang Depok";"30";"30";"Stok Awal"
"360";"2024-01-01";"439";"Flimeal Coklat Susu Sachet";"00013";"Gudang Depok";"10";"10";"Stok Awal"
"361";"2024-01-01";"438";"Flimeal Coklat Susu Box";"00012";"Gudang Depok";"23";"23";"Stok Awal"
"362";"2024-01-01";"437";"Flimty Mango Sachet";"00011";"Gudang Depok";"13";"13";"Stok Awal"
"363";"2024-01-01";"436";"Flimty Mango Box";"00010";"Gudang Depok";"22";"22";"Stok Awal"
"364";"2024-01-01";"435";"Flimty Raspberry Sachet";"00009";"Gudang Depok";"5";"5";"Stok Awal"
"365";"2024-01-01";"434";"Flimty Raspberry Box";"00008";"Gudang Depok";"29";"29";"Stok Awal"
"366";"2024-01-01";"433";"Flimty Blackcurrant Sachet";"00007";"Gudang Depok";"2";"2";"Stok Awal"
"367";"2024-01-01";"432";"Flimty Blackcurrant Box";"00006";"Gudang Depok";"20";"20";"Stok Awal"
"368";"2024-01-01";"431";"Hotto Purto Pouch";"00124";"Gudang Depok";"162";"162";"Stok Awal"
"369";"2024-01-01";"430";"Golo Royal Jelly Sachet";"00142";"Gudang Depok";"2";"2";"Stok Awal"
"370";"2024-01-01";"429";"Golo Royal Jelly Box";"00141";"Gudang Depok";"86";"86";"Stok Awal"
"371";"2024-01-01";"428";"Mganik 3Peptide";"00118";"Gudang Depok";"28";"28";"Stok Awal"
"372";"2024-01-01";"427";"Multigrain Sachet";"00005";"Gudang Depok";"4";"4";"Stok Awal"
"373";"2024-01-01";"426";"Multigrain 1500gr";"00004";"Gudang Depok";"26";"26";"Stok Awal"
"374";"2024-01-01";"425";"Metafiber Leci";"00003";"Gudang Depok";"36";"36";"Stok Awal"
"375";"2024-01-01";"424";"Metafiber Jeruk";"00002";"Gudang Depok";"59";"59";"Stok Awal"
"376";"2024-01-01";"576";"Roove Blueberi Sachet";"00099";"Gudang Bekasi";"1";"1";"opname"
"377";"2024-01-02";"578";"Tumblr Nice";"00062";"Gudang Bekasi";"20";"20";"opname"
"378";"2024-01-02";"577";"Shaker Oren";"00138";"Gudang Bekasi";"20";"20";"opname"
"379";"2024-01-02";"584";"Ecer Tisu Magic Mirai Sachet";"00184";"Gudang Bekasi";"20";"15";"opname"
"380";"2024-01-02";"584";"Ecer Tisu Magic Mirai Sachet";"00184";"Gudang Bekasi";"5";"5";"opname"
"381";"2024-01-02";"583";"Tisu Magic Mirai 3s";"00183";"Gudang Bekasi";"20";"20";"opname"
"382";"2024-01-02";"582";"Hand Sanitizer";"00139";"Gudang Bekasi";"20";"20";"opname"
"383";"2024-01-02";"581";"Shaker Flimty";"00100";"Gudang Bekasi";"20";"20";"opname"
"384";"2024-01-02";"580";"Botol Kaca";"00137";"Gudang Bekasi";"20";"20";"gojek"
"385";"2024-01-02";"579";"Parfum Vleo";"00065";"Gudang Bekasi";"20";"20";"opname"
"386";"2024-01-02";"566";"Tumblr Nice";"00062";"Gudang Depok";"1";"0";"None"
"387";"2024-01-02";"614";"Flimeal Strawberry Sachet";"00017";"Gudang Depok";"1";"1";"opname"
"388";"2024-01-02";"604";"Hotto Purto Sachet";"00125";"Gudang Depok";"1";"1";"hotto"
"389";"2024-01-02";"613";"Joyjus Kapsul";"00028";"Gudang Depok";"1";"1";"opname"
"390";"2024-01-02";"610";"Joyjus Sachet";"00027";"Gudang Depok";"1";"1";"opname"
"391";"2024-01-02";"608";"Golo Banana Sachet";"00034";"Gudang Depok";"1";"1";"opname"
"392";"2024-01-02";"605";"Golo Banana Box";"00033";"Gudang Depok";"1";"1";"opname"
"393";"2024-01-02";"566";"Tumblr Nice";"00062";"Gudang Depok";"1";"1";"opname"
"394";"2024-01-02";"528";"Dynamic Coffee Sachet";"00132";"Gudang Depok";"3";"3";"opname"
"395";"2024-01-02";"516";"Botol Kaca";"00137";"Gudang Depok";"7";"7";"opname"
"396";"2024-01-02";"446";"Sopalpha Box";"00022";"Gudang Depok";"12";"12";"opname"
"397";"2024-01-02";"588";"Roove Blueberi isi 50";"00098";"Gudang Depok";"26";"26";"02 Januari 2024"
"398";"2024-01-03";"616";"Minyak Kurus Kutus Biru";"00185";"Gudang Depok";"1";"1";"Stok Awal"
"399";"2024-01-03";"615";"Minyak Kurus Kutus Biru";"00185";"Gudang Depok";"5";"5";"2-1-2024"
"400";"2024-01-03";"617";"Propolis Hepro";"00134";"Gudang Depok";"20";"20";"Pindah Stok dari Bekasi"
"401";"2024-01-03";"618";"Kopi SLB Box";"00029";"Gudang Depok";"50";"50";"Pindah Stok Bekasi"
"402";"2024-01-03";"619";"Tridax Procumbens Kapsul";"00103";"Gudang Depok";"10";"10";"Pindah Stok Bekasi"
"403";"2024-01-03";"620";"Madu Dukosam";"00047";"Gudang Depok";"35";"35";"Pindah Stok Bekasi"
"404";"2024-01-03";"621";"Hotto Purto Pouch";"00124";"Gudang Depok";"240";"240";"03 januari"
"405";"2024-01-03";"624";"Total fitness Stick Olympia 220cm 5cm 20kg";"00186";"Gudang Depok";"1";"1";"Stok Awal"
"406";"2024-01-04";"629";"Madu Kanzmag";"00187";"Gudang Bekasi";"1";"1";"0"
"407";"2024-01-04";"630";"Madu Kanzmag";"00119";"Gudang Depok";"10";"10";"opname"
"408";"2024-01-04";"631";"Madu Kanzmag";"00119";"Gudang Depok";"10";"10";"Opname"
"409";"2024-01-04";"489";"Madu Kanzmag";"00119";"Gudang Depok";"25";"25";"Opname"
"410";"2024-01-04";"623";"Golo Banana Box";"00033";"Gudang Depok";"120";"120";"Restock 04 jan 2024"
"411";"2024-01-04";"585";"Multigrain 500gr";"00001";"Gudang Depok";"48";"48";"Restock 04 jan 2024"
"412";"2024-01-04";"587";"Mganik 3Peptide";"00118";"Gudang Depok";"40";"40";"Restock 04 jan 2024"
"413";"2024-01-04";"586";"Metafiber Leci";"00003";"Gudang Depok";"20";"0";"Salah Varian"
"414";"2024-01-04";"634";"Metafiber Jeruk";"00002";"Gudang Depok";"20";"20";"Restok 4 jan 2024"
"415";"2024-01-04";"628";"Hotto Purto Pouch";"00124";"Gudang Depok";"120";"120";"Restock 4 jan 2024"
"416";"2024-01-04";"603";"Flimty Mango Box";"00010";"Gudang Depok";"30";"30";"Restock 4 Jan 2024"
"417";"2024-01-04";"602";"Flimty Raspberry Box";"00008";"Gudang Depok";"30";"30";"Restock 4 Jan 2024"
"418";"2024-01-04";"601";"Flimeal Coklat Susu Box";"00012";"Gudang Depok";"30";"30";"Restock 4 Jan 2024"
"419";"2024-01-04";"600";"Flimty Blackcurrant Box";"00006";"Gudang Depok";"60";"60";"Restock 4 Jan 2024"
"420";"2024-01-05";"636";"Propolis Hepro";"00134";"Gudang Depok";"240";"240";"Restock 04 Januari 2024"
"421";"2024-01-05";"627";"Mganik 3Peptide";"00118";"Gudang Bekasi";"80";"80";"KGX Express"
"422";"2024-01-05";"626";"Multigrain 500gr";"00001";"Gudang Bekasi";"72";"72";"KGX Express"
"423";"2024-01-05";"625";"Golo Banana Box";"00033";"Gudang Bekasi";"120";"120";"KGX Express"
"424";"2024-01-05";"589";"Flimty Mango Box";"00010";"Gudang Bekasi";"60";"60";"GOBOX"
"425";"2024-01-05";"590";"Flimty Blackcurrant Box";"00006";"Gudang Bekasi";"60";"60";"GOBOX"
"426";"2024-01-05";"592";"Flimeal Coklat Susu Box";"00012";"Gudang Bekasi";"30";"30";"GOBOX"
"427";"2024-01-05";"593";"Flimeal Coklat Vegan Box";"00014";"Gudang Bekasi";"30";"30";"GOBOX"
"428";"2024-01-05";"591";"Flimty Raspberry Box";"00008";"Gudang Bekasi";"30";"30";"GOBOX"
"429";"2024-01-05";"599";"Flimty Raspberry Box";"00008";"Gudang Bekasi";"30";"30";"GOBOX"
"430";"2024-01-05";"598";"Flimty Mango Box";"00010";"Gudang Bekasi";"60";"60";"GOBOX"
"431";"2024-01-06";"639";"Roove Blueberi isi 20";"00097";"gudang bandung";"13";"13";"c"
"432";"2024-01-06";"638";"Roove Strawberry 1 box 20 sachet";"00188";"gudang bandung";"13";"13";"c"
"433";"2024-01-06";"635";"Hotto Purto Pouch";"00124";"gudang bandung";"30";"30";"c"
"434";"2024-01-06";"632";"Hotto Purto Pouch";"00124";"gudang bandung";"30";"30";"c"
"435";"2024-01-06";"622";"Sopalpha Box";"00022";"Gudang Depok";"76";"76";"Restock 06 januari 2024"
"436";"2024-01-10";"643";"Metafiber Jeruk";"00002";"Gudang Bekasi";"100";"100";"kgx exxpress"
"437";"2024-01-10";"648";"Botol Minum Plastik";"00182";"Gudang Bekasi";"56";"56";"sesuai"
"438";"2024-01-10";"649";"Tumblr Nice";"00062";"Gudang Bekasi";"80";"80";"sesuai"
"439";"2024-01-10";"642";"Madu Bajakah Borneo";"00060";"Gudang Depok";"96";"96";"sampai"
"440";"2024-01-10";"650";"Hotto Purto Pouch";"00124";"gudang bandung";"240";"0";"Salah Input"
"441";"2024-01-10";"654";"Balans Lite Tub";"00054";"Gudang Depok";"20";"20";"Pindah Gudang dari Bekasi"
"442";"2024-01-10";"655";"Reglow Cream";"00040";"Gudang Depok";"20";"20";"Pindah Gudang dari Bekasi"
"443";"2024-01-10";"594";"Flimty Mango Box";"00010";"gudang bandung";"60";"60";"new"
"444";"2024-01-10";"595";"Flimty Raspberry Box";"00008";"gudang bandung";"30";"30";"new"
"445";"2024-01-10";"666";"Susu Kambing Skygoat";"00133";"Gudang Depok";"120";"120";"Restok"
"446";"2024-01-10";"650";"Hotto Purto Pouch";"00124";"gudang bandung";"240";"240";"salah gudang"
"447";"2024-01-10";"656";"Hotto Purto Pouch";"00124";"Gudang Depok";"240";"240";"Restok 10 januari"
"448";"2024-01-11";"661";"Golo Banana Box";"00033";"Gudang Depok";"120";"120";"Restok 11 januari"
"449";"2024-01-11";"660";"Mganik 3Peptide";"00118";"Gudang Depok";"20";"20";"Restok 11 januari"
"450";"2024-01-11";"659";"Metafiber Jeruk";"00002";"Gudang Depok";"40";"40";"Restok 11 Januari"
"451";"2024-01-11";"658";"Multigrain 500gr";"00001";"Gudang Depok";"48";"24";"Restok 11 Januari"
"452";"2024-01-11";"658";"Multigrain 500gr";"00001";"Gudang Depok";"24";"24";"Restok 11 Januari"
"453";"2024-01-11";"667";"Hotto Purto Pouch";"00124";"Gudang Bekasi";"240";"240";"sampai sesuai"
"454";"2024-01-11";"653";"Sopalpha Box";"00022";"Gudang Bekasi";"38";"38";"sampai"
"455";"2024-01-11";"652";"Propolis Hepro";"00134";"Gudang Bekasi";"120";"120";"sesuai"
"456";"2024-01-11";"651";"Madu Bajakah Borneo";"00060";"Gudang Bekasi";"96";"96";"sesuai"
"457";"2024-01-11";"645";"Binasol";"00067";"Gudang Depok";"10";"10";"Restok 11 Januari"
"458";"2024-01-11";"644";"Olimex Kapsul Gabus";"00092";"Gudang Depok";"10";"10";"Restok 11 Januari"
"459";"2024-01-11";"637";"SteviaTruly 15ml";"00107";"Gudang Depok";"24";"24";"Restok 11 Januari"
"460";"2024-01-12";"668";"Tumblr Nice";"00062";"Gudang Depok";"40";"40";"Restok 12 januari"
"461";"2024-01-13";"596";"Flimty Blackcurrant Box";"00006";"gudang bandung";"60";"60";"new"
"462";"2024-01-13";"669";"Balans Recharge Tub";"00052";"Gudang Depok";"6";"6";"Opname"
"463";"2024-01-13";"493";"Madu Ratik";"00046";"Gudang Depok";"80";"0";"Double Input"
"464";"2024-01-13";"641";"Reglow Serum";"00043";"Gudang Bekasi";"100";"100";"sampai"
"465";"2024-01-13";"640";"Reglow Cream";"00040";"Gudang Bekasi";"200";"200";"sampai"
"466";"2024-01-13";"681";"Kesagi box isi 5";"00189";"Gudang Depok";"10";"10";"Stok Awal"
"467";"2024-01-13";"682";"Kesagi box isi 5";"00190";"Gudang Depok";"10";"1";"Salah input"
"468";"2024-01-13";"683";"Toples mganik";"00191";"Gudang Depok";"20";"20";"Stok Awal"
"469";"2024-01-13";"682";"Kesagi box isi 5";"00190";"Gudang Depok";"9";"9";"9"
"470";"2024-01-13";"685";"Kesagi box isi 5";"00190";"Gudang Depok";"1";"1";"1"
"471";"2024-01-13";"688";"Kesagi box isi 5";"00192";"Gudang Depok";"9";"9";"9"
"472";"2024-01-14";"672";"FR-Gluko";"00064";"gudang bandung";"20";"20";"new"
"473";"2024-01-14";"671";"Madu Dukosam";"00047";"gudang bandung";"10";"10";"new"
"474";"2024-01-14";"670";"Slimsure Fiber Box";"00057";"gudang bandung";"20";"20";"new"
"475";"2024-01-15";"673";"Madu Ratik";"00046";"Gudang Depok";"50";"50";"Restok 13 januari"
"476";"2024-01-15";"674";"Madu Vitagerd";"00045";"Gudang Depok";"250";"250";"Restok 13 januari"
"477";"2024-01-15";"675";"Madu Dukosam";"00047";"Gudang Depok";"50";"50";"Restok 13 Januari"
"478";"2024-01-15";"676";"Madu Gutamin";"00077";"Gudang Depok";"75";"75";"Restok 13 Januari"
"479";"2024-01-15";"677";"Madu Lamain";"00048";"Gudang Depok";"75";"75";"Restok 13 Januari"
"480";"2024-01-15";"662";"Balans Recharge Tub";"00052";"Gudang Bekasi";"100";"100";"sesuai"
"481";"2024-01-15";"665";"Balans Lite Tub";"00054";"Gudang Bekasi";"30";"30";"sesuai"
"482";"2024-01-15";"664";"Balans Pure Tub";"00056";"Gudang Bekasi";"10";"10";"sesuai"
"483";"2024-01-15";"663";"Balans Active Tub";"00050";"Gudang Bekasi";"30";"30";"sesuai"
"484";"2024-01-15";"689";"Balans Recharge Tub";"00052";"Gudang Depok";"100";"100";"Restok"
"485";"2024-01-15";"690";"Balans Active Tub";"00050";"Gudang Depok";"30";"30";"Restok"
"486";"2024-01-15";"691";"Balans Lite Tub";"00054";"Gudang Depok";"30";"30";"Restok"
"487";"2024-01-15";"692";"Balans Pure Tub";"00056";"Gudang Depok";"10";"10";"Restok"
"488";"2024-01-15";"680";"Madu Herbapros";"00078";"Gudang Bekasi";"20";"20";"sesuai"
"489";"2024-01-15";"679";"Madu Gurahfit";"00076";"Gudang Bekasi";"60";"60";"sesuai"
"490";"2024-01-15";"678";"Madu Cardiven";"00073";"Gudang Bekasi";"20";"20";"sampai"
"491";"2024-01-16";"702";"Balans Lite Tub";"00054";"Gudang Bekasi";"15";"15";"sesuai"
"492";"2024-01-16";"701";"Balans Recharge Tub";"00052";"Gudang Bekasi";"50";"50";"sesuai"
"493";"2024-01-16";"700";"Madu Gutamin";"00077";"Gudang Bekasi";"50";"50";"sesuai"
"494";"2024-01-16";"699";"Madu Dukosam";"00047";"Gudang Bekasi";"25";"25";"sesuai"
"495";"2024-01-16";"698";"Madu Ratik";"00046";"Gudang Bekasi";"25";"25";"lengkap"
"496";"2024-01-16";"697";"Madu Lamain";"00048";"Gudang Bekasi";"40";"40";"lengkap"
"497";"2024-01-16";"696";"Madu Vitagerd";"00045";"Gudang Bekasi";"150";"150";"lengkap"
"498";"2024-01-16";"695";"Hotto Purto Pouch";"00124";"Gudang Bekasi";"90";"90";"lengkap"
"499";"2024-01-16";"693";"Hotto Purto Pouch";"00124";"Gudang Depok";"240";"240";"15 Januari"
"500";"2024-01-17";"712";"Baby Gold 0,002gr";"00066";"Gudang Depok";"100";"100";"Restok"
"501";"2024-01-17";"694";"Golo Banana Box";"00033";"Gudang Bekasi";"120";"120";"sesuai"
"502";"2024-01-17";"704";"Balans Recharge Tub";"00052";"Gudang Bekasi";"100";"100";"sesuai"
"503";"2024-01-17";"705";"Balans Active Tub";"00050";"Gudang Bekasi";"30";"30";"sesuai"
"504";"2024-01-17";"707";"Balans Lite Tub";"00054";"Gudang Bekasi";"30";"30";"lengkap"
"505";"2024-01-17";"706";"Balans Pure Tub";"00056";"Gudang Bekasi";"10";"10";"sesuai"
"506";"2024-01-17";"719";"Madu Herbapros";"00078";"Gudang Depok";"20";"20";"17 januari"
"507";"2024-01-17";"718";"Grapto Plus";"00156";"Gudang Depok";"20";"20";"17 januari"
"508";"2024-01-17";"717";"Madu Zestmag";"00085";"Gudang Depok";"20";"20";"17 Januari"
"509";"2024-01-17";"716";"Madu Cardiven";"00073";"Gudang Depok";"20";"20";"17 Januari"
"510";"2024-01-17";"715";"Madu Nurutenz";"00081";"Gudang Depok";"20";"20";"17 Januari"
"511";"2024-01-18";"708";"Madu Gurahfit";"00076";"Gudang Depok";"20";"20";"18 Januari"
"512";"2024-01-18";"710";"Metafiber Jeruk";"00002";"Gudang Depok";"60";"60";"18 Januari"
"513";"2024-01-18";"709";"Multigrain 1500gr";"00004";"Gudang Depok";"16";"16";"18 Januari"
"514";"2024-01-18";"703";"Sopalpha Box";"00022";"Gudang Bekasi";"76";"76";"sesuai"
"515";"2024-01-18";"711";"Flimty Raspberry Box";"00008";"Gudang Depok";"120";"120";"18 Januari"
"516";"2024-01-19";"713";"Golo Royal Jelly Box";"00141";"Gudang Depok";"120";"120";"19 Januari"
"517";"2024-01-19";"720";"Hotto Purto Pouch";"00124";"Gudang Depok";"240";"240";"18 Januari"
"518";"2024-01-19";"732";"Golo Royal Jelly Box";"00141";"Gudang Bekasi";"3";"3";"sesuai"
"519";"2024-01-19";"731";"Golo Royal Jelly Sachet";"00142";"Gudang Bekasi";"38";"38";"sesuai"
"520";"2024-01-19";"721";"Kopi SLB Box";"00029";"Gudang Bekasi";"220";"220";"sesuai"
"521";"2024-01-19";"730";"Hotto Purto Pouch";"00124";"Gudang Bekasi";"300";"300";"sesuai"
"522";"2024-01-19";"597";"Flimty Blackcurrant Box";"00006";"Gudang Bekasi";"60";"60";"sesuai"
"523";"2024-01-21";"736";"Shaker Mganik";"00102";"Gudang Depok";"20";"20";"Djdj"
"524";"2024-01-22";"729";"Golo Royal Jelly Box";"00141";"gudang bandung";"60";"60";"new"
"525";"2024-01-22";"714";"Kopi SLB Box";"00029";"gudang bandung";"48";"48";"new"
"526";"2024-01-22";"727";"Propolis Hepro";"00134";"gudang bandung";"10";"10";"a"
"527";"2024-01-22";"726";"Balans Active Tub";"00050";"gudang bandung";"20";"20";"b"
"528";"2024-01-22";"725";"Balans Recharge Tub";"00052";"gudang bandung";"30";"30";"c"
"529";"2024-01-22";"724";"Hotto Purto Pouch";"00124";"gudang bandung";"15";"15";"e"
"530";"2024-01-23";"744";"Stevia Gold 10ml";"00172";"Gudang Depok";"11";"11";"11"
"531";"2024-01-23";"743";"Metafiber Jeruk";"00002";"Gudang Bekasi";"80";"80";"sesuai"
"532";"2024-01-23";"742";"Multigrain 500gr";"00001";"Gudang Bekasi";"48";"48";"sesuai"
"533";"2024-01-23";"722";"Metafiber Leci";"00003";"Gudang Bekasi";"100";"100";"sesuai"
"534";"2024-01-23";"733";"Roove Blueberi isi 50";"00098";"Gudang Bekasi";"52";"52";"sesuai"
"535";"2024-01-23";"734";"Golo Royal Jelly Box";"00141";"Gudang Bekasi";"60";"60";"sesuai"
"536";"2024-01-23";"735";"Golo Banana Box";"00033";"Gudang Bekasi";"60";"60";"sesuai"
"537";"2024-01-24";"741";"Metafiber Leci";"00003";"Gudang Depok";"60";"60";"23 januari"
"538";"2024-01-24";"740";"Metafiber Jeruk";"00002";"Gudang Depok";"40";"40";"23 Januari"
"539";"2024-01-24";"750";"Kesagi box isi 5";"00192";"Gudang Depok";"20";"20";"Restok"
"540";"2024-01-24";"747";"Propolis Hepro";"00134";"Gudang Depok";"240";"240";"23 januari"
"541";"2024-01-24";"748";"Susu Kambing Skygoat";"00133";"Gudang Depok";"120";"120";"23 januari"
"542";"2024-01-24";"728";"Flimty Mango Box";"00010";"Gudang Depok";"120";"120";"24 januari"
"543";"2024-01-25";"764";"Gelas Plastik";"00168";"Gudang Depok";"360";"360";"23 januari"
"544";"2024-01-25";"758";"Madu Vitagerd";"00045";"Gudang Depok";"200";"200";"24 januari"
"545";"2024-01-25";"762";"Madu Gutamin";"00077";"Gudang Depok";"50";"50";"24 januari"
"546";"2024-01-25";"761";"Madu Lamain";"00048";"Gudang Depok";"50";"50";"24 januari"
"547";"2024-01-25";"760";"Madu Ratik";"00046";"Gudang Depok";"50";"50";"24 januari"
"548";"2024-01-25";"759";"Madu Dukosam";"00047";"Gudang Depok";"150";"150";"24 januari"
"549";"2024-01-25";"757";"Kesagi box isi 5";"00192";"Gudang Depok";"40";"40";"24 januari"
"550";"2024-01-25";"756";"Hotto Purto Pouch";"00124";"Gudang Depok";"240";"240";"24 januari"
"551";"2024-01-25";"737";"Nadivit Box";"00091";"Gudang Depok";"30";"30";"24 januari"
"552";"2024-01-25";"749";"Golo Royal Jelly Box";"00141";"Gudang Depok";"120";"120";"25 januari"
"553";"2024-01-25";"755";"Golo Royal Jelly Box";"00141";"Gudang Bekasi";"120";"120";"sesuai"
"554";"2024-01-25";"763";"Parfum Vleo";"00065";"Gudang Bekasi";"50";"50";"ok"
"555";"2024-01-26";"776";"Dynamic Coffee";"00131";"Gudang Depok";"30";"30";"25 januari"
"556";"2024-01-26";"775";"Hotto Purto Pouch";"00124";"Gudang Depok";"120";"120";"25 januari"
"557";"2024-01-26";"773";"Mganik 3Peptide";"00118";"Gudang Depok";"80";"80";"26 januari"
"558";"2024-01-26";"754";"Botol Kaca Nice 400ml";"00194";"Gudang Depok";"80";"80";"20 januari"
"559";"2024-01-26";"751";"Tumbler plastik 500ml";"00193";"Gudang Depok";"40";"40";"24 januari"
"560";"2024-01-26";"746";"Reglow Cream";"00040";"Gudang Depok";"20";"20";"26 januari"
"561";"2024-01-26";"745";"Reglow Serum";"00043";"Gudang Depok";"20";"20";"26 januari"
"562";"2024-01-26";"783";"Parfum Vleo";"00065";"Gudang Depok";"90";"90";"Restok"
"563";"2024-01-26";"772";"Mganik 3Peptide";"00118";"Gudang Bekasi";"80";"80";"ok"
"564";"2024-01-26";"779";"Multigrain 1500gr";"00004";"Gudang Bekasi";"20";"20";"ok"
"565";"2024-01-26";"778";"Multigrain 500gr";"00001";"Gudang Bekasi";"72";"72";"ok"
"566";"2024-01-26";"777";"Kesagi box isi 5";"00192";"Gudang Bekasi";"30";"30";"ok"
"567";"2024-01-26";"771";"Propolis Hepro";"00134";"Gudang Bekasi";"120";"120";"ok"
"568";"2024-01-26";"770";"Madu Gutamin";"00077";"Gudang Bekasi";"30";"30";"ok"
"569";"2024-01-26";"766";"Hotto Purto Pouch";"00124";"Gudang Bekasi";"240";"240";"ok"
"570";"2024-01-26";"765";"Madu Vitagerd";"00045";"Gudang Bekasi";"150";"150";"ok"
"571";"2024-01-26";"767";"Madu Dukosam";"00047";"Gudang Bekasi";"100";"100";"ok"
"572";"2024-01-26";"768";"Madu Ratik";"00046";"Gudang Bekasi";"50";"50";"ok"
"573";"2024-01-26";"769";"Madu Lamain";"00048";"Gudang Bekasi";"30";"30";"ok"
"574";"2024-01-26";"753";"Tumbler plastik 500ml";"00193";"Gudang Bekasi";"37";"37";"ok"
"575";"2024-01-26";"752";"Tumbler plastik 500ml";"00193";"Gudang Bekasi";"37";"37";"ok"
"576";"2024-01-26";"739";"Flimty Mango Box";"00010";"Gudang Bekasi";"60";"60";"ok"
"577";"2024-01-26";"793";"Botol Minum Plastik";"00182";"Gudang Depok";"1";"1";"Penyesuaian 260124"
"578";"2024-01-26";"792";"Madu Gerdhero";"00075";"Gudang Depok";"1";"1";"Penyesuaian 260124"
"579";"2024-01-26";"791";"Olimex Kapsul Gabus";"00092";"Gudang Depok";"1";"1";"Penyesuaian 260124"
"580";"2024-01-26";"790";"Parfum Vleo";"00065";"Gudang Depok";"7";"7";"Penyesuaian 260124"
"581";"2024-01-26";"789";"Balans Lite Tub";"00054";"Gudang Depok";"1";"1";"Penyesuaian 260124"
"582";"2024-01-26";"788";"Madu Lamain";"00048";"Gudang Depok";"1";"1";"Penyesuaian 260124"
"583";"2024-01-26";"787";"Herslim Sachet";"00036";"Gudang Depok";"1";"1";"Penyesuaian 260124"
"584";"2024-01-26";"786";"Flimty Mango Sachet";"00011";"Gudang Depok";"1";"1";"Penyesuaian 260124"
"585";"2024-01-26";"785";"Flimty Raspberry Box";"00008";"Gudang Depok";"2";"2";"Penyesuaian 260124"
"586";"2024-01-26";"784";"Madu Bajakah Borneo";"00060";"Gudang Depok";"48";"48";"26 januari"
"587";"2024-01-27";"824";"Hand Sanitizer";"00139";"gudang bandung";"41";"41";"PENYESUAIAN27012024"
"588";"2024-01-27";"823";"Verazui";"00135";"gudang bandung";"7";"7";"PENYESUAIAN27012024"
"589";"2024-01-27";"822";"Hotto Purto Pouch";"00124";"gudang bandung";"29";"29";"PENYESUAIAN27012024"
"590";"2024-01-27";"821";"Shaker Mganik";"00102";"gudang bandung";"19";"19";"PENYESUAIAN27012024"
"591";"2024-01-27";"820";"Shaker Herwell";"00101";"gudang bandung";"2";"2";"PENYESUAIAN27012024"
"592";"2024-01-27";"819";"Shaker Flimty";"00100";"gudang bandung";"2";"2";"PENYESUAIAN27012024"
"593";"2024-01-27";"818";"Roove Blueberi isi 50";"00098";"gudang bandung";"9";"9";"PENYESUAIAN27012024"
"594";"2024-01-27";"817";"Pengharum Ruangan";"00093";"gudang bandung";"26";"26";"PENYESUAIAN27012024"
"595";"2024-01-27";"816";"Baby Gold 0,002gr";"00066";"gudang bandung";"89";"89";"PENYESUAIAN27012024"
"596";"2024-01-27";"815";"Parfum Vleo";"00065";"gudang bandung";"38";"38";"PENYESUAIAN27012024"
"597";"2024-01-27";"814";"Balans Pure Tub";"00056";"gudang bandung";"10";"10";"PENYESUAIAN27012024"
"598";"2024-01-27";"813";"Balans Pure Tub";"00056";"gudang bandung";"10";"10";"PENYESUAIAN27012024"
"599";"2024-01-27";"812";"Balans Recharge Sachet";"00051";"gudang bandung";"1";"1";"PENYESUAIAN27012024"
"600";"2024-01-27";"811";"Balans Active Tub";"00050";"gudang bandung";"8";"8";"PENYESUAIAN27012024"
"601";"2024-01-27";"810";"Balans Active Sachet";"00049";"gudang bandung";"10";"10";"PENYESUAIAN27012024"
"602";"2024-01-27";"809";"Reglow Pouch";"00044";"gudang bandung";"1";"1";"PENYESUAIAN27012024"
"603";"2024-01-27";"808";"Reglow Serum";"00043";"gudang bandung";"3";"3";"PENYESUAIAN27012024"
"604";"2024-01-27";"807";"Reglow Cream";"00040";"gudang bandung";"3";"3";"PENYESUAIAN27012024"
"605";"2024-01-27";"806";"SLB Man Box isi 10";"00031";"gudang bandung";"1";"1";"PENYESUAIAN27012024"
"606";"2024-01-27";"805";"Kopi SLB Sachet";"00030";"gudang bandung";"4";"4";"PENYESUAIAN27012024"
"607";"2024-01-27";"804";"Sopalpha Sachet";"00023";"gudang bandung";"12";"12";"PENYESUAIAN27012024"
"608";"2024-01-27";"803";"Flimeal Strawberry Box";"00016";"gudang bandung";"2";"2";"PENYESUAIAN27012024"
"609";"2024-01-27";"802";"Flimeal Coklat Susu Box";"00012";"gudang bandung";"6";"6";"PENYESUAIAN27012024"
"610";"2024-01-27";"801";"Flimty Mango Sachet";"00011";"gudang bandung";"7";"7";"PENYESUAIAN27012024"
"611";"2024-01-27";"800";"Flimty Raspberry Sachet";"00009";"gudang bandung";"2";"2";"PENYESUAIAN27012024"
"612";"2024-01-27";"799";"Flimty Blackcurrant Sachet";"00007";"gudang bandung";"1";"1";"PENYESUAIAN27012024"
"613";"2024-01-27";"798";"Flimty Blackcurrant Sachet";"00007";"gudang bandung";"1";"1";"PENYESUAIAN27012024"
"614";"2024-01-27";"797";"Multigrain Sachet";"00005";"gudang bandung";"20";"20";"PENYESUAIAN27012024"
"615";"2024-01-27";"849";"Roove Strawberry 1 box 20 sachet";"00188";"Gudang Bekasi";"12";"12";"PENYESUAIAN27012024"
"616";"2024-01-27";"848";"Ecer Tisu Magic Mirai Sachet";"00184";"Gudang Bekasi";"15";"15";"PENYESUAIAN27012024"
"617";"2024-01-27";"847";"Botol Minum Plastik";"00182";"Gudang Bekasi";"47";"47";"PENYESUAIAN27012024"
"618";"2024-01-27";"846";"Kondom";"00140";"Gudang Bekasi";"40";"40";"PENYESUAIAN27012024"
"619";"2024-01-27";"845";"Hand Sanitizer";"00139";"Gudang Bekasi";"31";"31";"PENYESUAIAN27012024"
"620";"2024-01-27";"844";"Shaker Oren";"00138";"Gudang Bekasi";"17";"17";"PENYESUAIAN27012024"
"621";"2024-01-27";"843";"Verazui";"00135";"Gudang Bekasi";"4";"4";"PENYESUAIAN27012024"
"622";"2024-01-27";"842";"Roove Blueberi Sachet";"00099";"Gudang Bekasi";"49";"49";"PENYESUAIAN27012024"
"623";"2024-01-27";"841";"Roove Blueberi isi 20";"00097";"Gudang Bekasi";"2";"2";"PENYESUAIAN27012024"
"624";"2024-01-27";"840";"Tumblr Nice";"00062";"Gudang Bekasi";"29";"29";"PENYESUAIAN27012024"
"625";"2024-01-27";"839";"Madu Bajakah Borneo";"00060";"Gudang Bekasi";"96";"96";"PENYESUAIAN27012024"
"626";"2024-01-27";"838";"Balans Lite Sachet";"00053";"Gudang Bekasi";"188";"188";"PENYESUAIAN27012024"
"627";"2024-01-27";"837";"Balans Recharge Sachet";"00051";"Gudang Bekasi";"544";"544";"PENYESUAIAN27012024"
"628";"2024-01-27";"836";"Balans Active Sachet";"00049";"Gudang Bekasi";"42";"42";"PENYESUAIAN27012024"
"629";"2024-01-27";"835";"Golo Banana Sachet";"00034";"Gudang Bekasi";"197";"197";"PENYESUAIAN27012024"
"630";"2024-01-27";"834";"Flimty Raspberry Sachet";"00009";"Gudang Bekasi";"8";"8";"PENYESUAIAN27012024"
"631";"2024-01-27";"833";"Flimty Blackcurrant Sachet";"00007";"Gudang Bekasi";"2";"2";"PENYESUAIAN27012024"
"632";"2024-01-27";"832";"Multigrain 1500gr";"00004";"Gudang Bekasi";"4";"4";"PENYESUAIAN27012024"
"633";"2024-01-27";"831";"Metafiber Leci";"00003";"Gudang Bekasi";"100";"100";"PENYESUAIAN27012024"
"634";"2024-01-27";"830";"Metafiber Jeruk";"00002";"Gudang Bekasi";"80";"80";"PENYESUAIAN27012024"
"635";"2024-01-27";"795";"Susu Kambing Skygoat";"00133";"Gudang Bekasi";"240";"237";"PENYESUAIAN27012024"
"636";"2024-01-27";"851";"FR-Gluko";"00064";"Gudang Bekasi";"126";"126";"PENYESUAIAN27012024"
"637";"2024-01-27";"850";"Kesagi box isi 5";"00192";"Gudang Bekasi";"40";"40";"PENYESUAIAN27012024"
"638";"2024-01-27";"853";"Golo Royal Jelly Sachet";"00142";"Gudang Bekasi";"320";"320";"PENYESUAIAN27012024"
"639";"2024-01-27";"852";"Golo Royal Jelly Box";"00141";"Gudang Bekasi";"17";"17";"PENYESUAIAN27012024"
"640";"2024-01-29";"827";"Roove Blueberi isi 20";"00097";"Gudang Bekasi";"39";"39";"ok"
"641";"2024-01-29";"796";"Madu Bajakah Borneo";"00060";"Gudang Bekasi";"96";"96";"ok"
"642";"2024-01-29";"780";"Metafiber Leci";"00003";"Gudang Bekasi";"100";"100";"ok"
"643";"2024-01-29";"782";"Mganik 3Peptide";"00118";"Gudang Bekasi";"60";"60";"ok"
"644";"2024-01-29";"826";"Sopalpha Box";"00022";"Gudang Bekasi";"76";"76";"ok"
"645";"2024-01-29";"781";"Multigrain 1500gr";"00004";"Gudang Bekasi";"12";"12";"ok"
"646";"2024-01-29";"829";"Multigrain 1500gr";"00004";"Gudang Bekasi";"8";"8";"ok"
"647";"2024-01-29";"828";"Parfum Vleo";"00065";"Gudang Bekasi";"90";"90";"ok"
"648";"2024-01-30";"865";"Golo Royal Jelly Box";"00141";"Gudang Bekasi";"30";"30";"ok"
"649";"2024-01-30";"857";"Madu Zestmag";"00085";"Gudang Bekasi";"20";"20";"ok"
"650";"2024-01-30";"856";"Madu Nurutenz";"00081";"Gudang Bekasi";"10";"10";"ok"
"651";"2024-01-30";"855";"Madu Gurahfit";"00076";"Gudang Bekasi";"70";"70";"ok"
"652";"2024-01-30";"854";"Grapto Plus";"00072";"Gudang Bekasi";"10";"10";"ok"
"653";"2024-01-30";"859";"Roove Strawberry 1 box 20 sachet";"00188";"Gudang Depok";"13";"13";"30 januari"
"654";"2024-01-30";"858";"Roove Blueberi isi 50";"00098";"Gudang Depok";"26";"26";"30 januari"
"655";"2024-01-30";"868";"Multigrain 500gr";"00001";"Gudang Bekasi";"36";"36";"PENYESUAIAN STOK 30012024"
"656";"2024-01-30";"869";"Flimty Raspberry Box";"00008";"Gudang Bekasi";"15";"15";"PENYESUAIAN STOK 30012024"
"657";"2024-01-30";"870";"Sopalpha Box";"00022";"Gudang Bekasi";"20";"20";"PENYESUAIAN STOK 30012024"
"658";"2024-01-30";"871";"Kopi SLB Box";"00029";"Gudang Bekasi";"31";"31";"PENYESUAIAN STOK 30012024"
"659";"2024-01-30";"872";"Reglow Cream";"00040";"Gudang Bekasi";"5";"5";"PENYESUAIAN STOK 30012024"
"660";"2024-01-30";"873";"Slimsure Fiber Box";"00057";"Gudang Bekasi";"30";"30";"PENYESUAIAN STOK 30012024"
"661";"2024-01-30";"874";"Propolis Hepro";"00134";"Gudang Bekasi";"10";"10";"PENYESUAIAN STOK 30012024"
"662";"2024-01-30";"875";"Hotto Purto Pouch";"00124";"Gudang Bekasi";"47";"47";"PENYESUAIAN STOK 30012024"
"663";"2024-01-30";"606";"Golo Banana Box";"00033";"Gudang Bekasi";"1";"1";"PENYESUAIAN STOK 30012024"
"664";"2024-01-30";"607";"Golo Banana Sachet";"00034";"Gudang Bekasi";"1";"1";"PENYESUAIAN STOK 30012024"
"665";"2024-01-30";"877";"Golo Banana Sachet";"00034";"Gudang Bekasi";"39";"39";"PENYESUAIAN STOK 30012024"
"666";"2024-01-30";"876";"Mganik 3Peptide";"00118";"Gudang Bekasi";"38";"38";"PENYESUAIAN STOK 30012024"
"667";"2024-01-30";"878";"Kopi SLB Sachet";"00030";"Gudang Bekasi";"4";"4";"PENYESUAIAN STOK 30012024"
"668";"2024-01-30";"879";"Balans Lite Sachet";"00053";"Gudang Bekasi";"78";"78";"PENYESUAIAN STOK 30012024"
"669";"2024-01-30";"880";"Golo Royal Jelly Sachet";"00142";"Gudang Bekasi";"143";"143";"PENYESUAIAN STOK 30012024"
"670";"2024-01-30";"738";"Flimty Blackcurrant Box";"00006";"Gudang Bekasi";"60";"20";"PENYESUAIAN STOK 30012024"
"671";"2024-01-30";"609";"Flimeal Coklat Susu Sachet";"00013";"Gudang Bekasi";"1";"1";"PENYESUAIAN STOK 30012024"
"672";"2024-01-30";"611";"Joyjus Fiber 500gr";"00025";"Gudang Bekasi";"1";"1";"PENYESUAIAN STOK 30012024"
"673";"2024-01-30";"612";"Joyjus Kapsul";"00028";"Gudang Bekasi";"1";"1";"PENYESUAIAN STOK 30012024"
"674";"2024-01-30";"646";"Roove Strawberry 1 box 20 sachet";"00188";"Gudang Bekasi";"1";"1";"PENYESUAIAN STOK 30012024"
"675";"2024-01-30";"738";"Flimty Blackcurrant Box";"00006";"Gudang Bekasi";"40";"40";"PENYESUAIAN STOK 30012024"
"676";"2024-01-30";"795";"Susu Kambing Skygoat";"00133";"Gudang Bekasi";"3";"3";"PENYESUAIAN STOK 30012024"
"677";"2024-01-30";"883";"Balans Active Tub";"00050";"gudang bandung";"1";"1";"PENYESUAIAN STOK 30012024"
"678";"2024-01-30";"882";"Flimty Raspberry Box";"00008";"gudang bandung";"1";"1";"PENYESUAIAN STOK 30012024"
"679";"2024-01-30";"881";"Flimty Blackcurrant Box";"00006";"gudang bandung";"1";"1";"PENYESUAIAN STOK 30012024"
"680";"2024-01-30";"886";"Propolis Hepro";"00134";"Gudang Depok";"1";"1";"1. Kopi SLB -2box"
"681";"2024-01-30";"885";"Madu Gerdhero";"00075";"Gudang Depok";"8";"8";"1. Kopi SLB -2box"
"682";"2024-01-30";"884";"Balans Recharge Tub";"00052";"Gudang Depok";"2";"2";"1. Kopi SLB -2box"
"683";"2024-01-30";"647";"Roove Strawberry 1 box 20 sachet";"00188";"Gudang Depok";"1";"1";"1. Kopi SLB -2box"
"684";"2024-01-30";"493";"Madu Ratik";"00046";"Gudang Depok";"80";"80";"1. Kopi SLB -2box"
"685";"2024-01-30";"657";"Multigrain 500gr";"00001";"Gudang Depok";"48";"48";"1. Kopi SLB -2box"
"686";"2024-01-30";"633";"Metafiber Leci";"00003";"Gudang Depok";"20";"20";"1. Kopi SLB -2box"
"687";"2024-01-30";"586";"Metafiber Leci";"00003";"Gudang Depok";"20";"20";"1. Kopi SLB -2box"
"688";"2024-01-31";"861";"Golo Royal Jelly Box";"00141";"Gudang Bekasi";"60";"60";"ok"
"689";"2024-02-01";"860";"Golo Royal Jelly Box";"00141";"Gudang Depok";"60";"60";"31 januari"
"690";"2024-02-01";"862";"Multigrain 500gr";"00001";"Gudang Depok";"48";"48";"31 januari"
"691";"2024-02-01";"864";"Multigrain 1500gr";"00004";"Gudang Depok";"8";"8";"31 januari"
"692";"2024-02-01";"863";"Metafiber Jeruk";"00002";"Gudang Depok";"40";"40";"31 januari"
"693";"2024-02-01";"867";"Sopalpha Box";"00022";"gudang bandung";"20";"20";"pindah dari bekasi"
"694";"2024-02-01";"866";"Madu Vitagerd";"00045";"gudang bandung";"20";"20";"pindah dari bekasi"
"695";"2024-02-01";"825";"Flimty Blackcurrant Box";"00006";"Gudang Depok";"120";"120";"1 februari"
"696";"2024-02-01";"890";"Hotto Purto Pouch";"00124";"Gudang Depok";"240";"240";"1 februari"
"697";"2024-02-02";"895";"Metafiber Leci";"00003";"Gudang Bekasi";"40";"40";"ok"
"698";"2024-02-02";"894";"Metafiber Jeruk";"00002";"Gudang Bekasi";"60";"60";"ok"
"699";"2024-02-02";"893";"Golo Royal Jelly Box";"00141";"Gudang Bekasi";"120";"120";"120"
"700";"2024-02-02";"888";"Golo Royal Jelly Box";"00141";"Gudang Bekasi";"60";"60";"ok"
"701";"2024-02-03";"887";"Joyjus Kapsul";"00028";"Gudang Bekasi";"40";"40";"ok"
"702";"2024-02-03";"900";"Vectorlabs mass gainer 2lbs";"00195";"Gudang Depok";"22";"22";"22"
"703";"2024-02-05";"889";"Madu Gerdhero";"00075";"Gudang Depok";"50";"50";"3 februari"
"704";"2024-02-05";"896";"Golo Royal Jelly Box";"00141";"Gudang Depok";"120";"120";"4 februari"
"705";"2024-02-05";"901";"Hotto Purto Pouch";"00124";"Gudang Bekasi";"240";"240";"ok"
"706";"2024-02-05";"902";"Flimty Blackcurrant Box";"00006";"Gudang Bekasi";"60";"60";"ok"
"707";"2024-02-06";"914";"Reglow Pouch";"00044";"Gudang Depok";"350";"350";"ok"
"708";"2024-02-06";"916";"Golo Banana Sachet";"00034";"Gudang Bekasi";"2";"2";"PENYESUAIAN STOK 06022024"
"709";"2024-02-06";"915";"Golo Royal Jelly Sachet";"00142";"Gudang Bekasi";"76";"76";"PENYESUAIAN STOK 06022024"
"710";"2024-02-06";"907";"Tumbler plastik 500ml";"00193";"Gudang Bekasi";"77";"77";"ok"
"711";"2024-02-06";"899";"Mganik 3Peptide";"00118";"Gudang Bekasi";"40";"40";"ok"
"712";"2024-02-06";"898";"Multigrain 500gr";"00001";"Gudang Bekasi";"72";"72";"ok"
"713";"2024-02-06";"911";"Hotto Purto Pouch";"00124";"Gudang Depok";"240";"240";"5 februari"
"714";"2024-02-06";"906";"Botol Kaca";"00137";"Gudang Bekasi";"80";"80";"ok"
"715";"2024-02-06";"912";"Golo Royal Jelly Box";"00141";"Gudang Depok";"60";"60";"6 februari"
"716";"2024-02-06";"909";"Parfum Vleo";"00065";"Gudang Depok";"45";"45";"6 februari"
"717";"2024-02-07";"904";"Ecer Tisu Magic Mirai Sachet";"00184";"Gudang Bekasi";"150";"150";"ok"
"718";"2024-02-07";"897";"Kopi SLB Box";"00029";"Gudang Depok";"48";"48";"6 februari"
"719";"2024-02-07";"910";"Tumbler plastik 500ml";"00193";"Gudang Depok";"40";"40";"7 februari"
"720";"2024-02-08";"923";"Shaker Oren";"00138";"Gudang Bekasi";"50";"50";"ok"
"721";"2024-02-08";"926";"Shaker Mganik";"00102";"Gudang Bekasi";"100";"100";"ok"
"722";"2024-02-08";"925";"Shaker Flimty";"00100";"Gudang Bekasi";"100";"100";"ok"
"723";"2024-02-08";"921";"Botol Kaca Nice 400ml";"00194";"Gudang Bekasi";"60";"60";"ok"
"724";"2024-02-08";"918";"Mganik 3Peptide";"00118";"Gudang Bekasi";"80";"80";"ok"
"725";"2024-02-08";"917";"Golo Royal Jelly Box";"00141";"Gudang Bekasi";"120";"120";"ok"
"726";"2024-02-09";"908";"Baby Gold 0,002gr";"00066";"Gudang Depok";"100";"100";"8 februari"
"727";"2024-02-10";"936";"Kopi Gatot koco box";"00198";"Gudang Depok";"1050";"1050";"Ok"
"728";"2024-02-10";"935";"Madu Gutamin";"00077";"Gudang Depok";"50";"50";"9 februari"
"729";"2024-02-10";"934";"Madu Dukosam";"00047";"Gudang Depok";"50";"50";"9 februari"
"730";"2024-02-10";"933";"Madu Ratik";"00046";"Gudang Depok";"50";"50";"9 februari"
"731";"2024-02-10";"932";"Madu Vitagerd";"00045";"Gudang Depok";"350";"350";"9 februari"
"732";"2024-02-10";"913";"Clorismen Brightening Serum";"00110";"Gudang Depok";"5";"5";"7 februari"
"733";"2024-02-12";"922";"Metafiber Jeruk";"00002";"Gudang Bekasi";"100";"100";"OK"
"734";"2024-02-12";"950";"Madu Gutamin";"00077";"Gudang Bekasi";"35";"35";"ok"
"735";"2024-02-12";"949";"Madu Ratik";"00046";"Gudang Bekasi";"70";"70";"ok"
"736";"2024-02-12";"947";"Madu Vitagerd";"00045";"Gudang Bekasi";"200";"200";"ok"
"737";"2024-02-12";"946";"Hotto Purto Pouch";"00124";"Gudang Bekasi";"120";"120";"ok"
"738";"2024-02-12";"948";"Madu Dukosam";"00047";"Gudang Bekasi";"50";"50";"ok"
"739";"2024-02-12";"945";"Kopi SLB Box";"00029";"Gudang Bekasi";"110";"110";"ok"
"740";"2024-02-12";"939";"Balans Active Tub";"00050";"Gudang Bekasi";"40";"40";"ok"
"741";"2024-02-12";"938";"Balans Recharge Tub";"00052";"Gudang Bekasi";"130";"130";"ok"
"742";"2024-02-12";"903";"Kondom";"00140";"Gudang Bekasi";"60";"60";"ok"
"743";"2024-02-12";"892";"Flimty Mango Box";"00010";"Gudang Bekasi";"60";"60";"ok"
"744";"2024-02-12";"891";"Flimty Blackcurrant Box";"00006";"Gudang Bekasi";"60";"60";"ok"
"745";"2024-02-13";"957";"Botol Kaca Nice 400ml";"00194";"Gudang Depok";"1";"1";"Penyesuaian 13022024"
"746";"2024-02-13";"956";"Metafiber Jeruk";"00002";"Gudang Depok";"2";"2";"Penyesuaian 13022024"
"747";"2024-02-13";"955";"Multigrain 500gr";"00001";"Gudang Depok";"2";"2";"Penyesuaian 13022024"
"748";"2024-02-13";"962";"Kopi Gatot koco box";"00198";"Gudang Bekasi";"480";"480";"ok"
"749";"2024-02-13";"940";"Hotto Purto Pouch";"00124";"Gudang Depok";"240";"240";"12 februari"
"750";"2024-02-15";"969";"Balans Recharge Tub";"00052";"Gudang Depok";"38";"38";"14 februari"
"751";"2024-02-15";"968";"Esbi Orevin";"00071";"Gudang Depok";"5";"5";"14 februari"
"752";"2024-02-15";"967";"Reglow Cream";"00040";"Gudang Depok";"20";"20";"14 februari"
"753";"2024-02-15";"966";"Madu Zestmag";"00085";"Gudang Depok";"10";"10";"14 februari"
"754";"2024-02-15";"965";"Madu Gurahfit";"00076";"Gudang Depok";"40";"40";"14 februari"
"755";"2024-02-15";"964";"Olimex Kapsul Gabus";"00092";"Gudang Depok";"10";"10";"14 februari"
"756";"2024-02-15";"974";"Flimburn";"00024";"Gudang Depok";"1";"1";"stok taking Jusrida"
"757";"2024-02-15";"973";"Flimty Mango Box";"00010";"Gudang Depok";"2";"2";"Stok Taking Jusrida"
"758";"2024-02-15";"972";"Flimty Raspberry Box";"00008";"Gudang Depok";"2";"2";"Stok Taking Jusrida"
"759";"2024-02-15";"971";"Flimty Blackcurrant Box";"00006";"Gudang Depok";"3";"3";"Stok Taking Jusrida"
"760";"2024-02-15";"941";"Multigrain 500gr";"00001";"Gudang Depok";"48";"48";"15 februari"
"761";"2024-02-15";"942";"Multigrain 1500gr";"00004";"Gudang Depok";"8";"8";"15 februari"
"762";"2024-02-15";"943";"Metafiber Jeruk";"00002";"Gudang Depok";"40";"40";"15 februari"
"763";"2024-02-15";"944";"Metafiber Leci";"00003";"Gudang Depok";"20";"20";"15 februari"
"764";"2024-02-17";"978";"Golo Royal Jelly Box";"00141";"Gudang Bekasi";"120";"120";"ok"
"765";"2024-02-17";"963";"Sopalpha Box";"00022";"Gudang Bekasi";"76";"76";"ok"
"766";"2024-02-17";"970";"Metafiber Leci";"00003";"Gudang Bekasi";"100";"100";"ok"
"767";"2024-02-17";"924";"Burenka";"00196";"Gudang Depok";"500";"500";"16 februari"
"768";"2024-02-17";"981";"Propolis Hepro";"00134";"Gudang Depok";"240";"240";"16 februari"
"769";"2024-02-17";"982";"Susu Kambing Skygoat";"00133";"Gudang Depok";"120";"120";"16 februari"
"770";"2024-02-17";"983";"Flimty Blackcurrant Box";"00006";"Gudang Depok";"60";"60";"17 februari"
"771";"2024-02-17";"984";"Flimty Raspberry Box";"00008";"Gudang Depok";"60";"60";"17 februari"
"772";"2024-02-17";"989";"Parfum Vleo";"00065";"Gudang Depok";"90";"90";"17 februari"
"773";"2024-02-18";"988";"Botol Kaca Nice 400ml";"00194";"Gudang Bekasi";"80";"80";"ok"
"774";"2024-02-18";"985";"Mganik 3Peptide";"00118";"Gudang Bekasi";"80";"80";"ok"
"775";"2024-02-18";"979";"Herslim Box";"00035";"Gudang Bekasi";"60";"60";"ok"
"776";"2024-02-18";"980";"Shaker Herwell";"00101";"Gudang Bekasi";"30";"30";"ok"
"777";"2024-02-18";"975";"Flimty Blackcurrant Box";"00006";"Gudang Bekasi";"60";"60";"ok"
"778";"2024-02-19";"990";"Kopi Gatot koco box";"00198";"gudang bandung";"80";"80";"s"
"779";"2024-02-19";"905";"Hand Sanitizer";"00139";"Gudang Bekasi";"50";"50";"sampai dengan selamat"
"780";"2024-02-19";"927";"Roove Blueberi isi 10";"00121";"Gudang Depok";"100";"100";"19-2-2024"
"781";"2024-02-19";"928";"Roove Blueberi isi 20";"00097";"Gudang Depok";"150";"150";"19-2-2024"
"782";"2024-02-19";"929";"Roove Strawberry 1 box 20 sachet";"00188";"Gudang Depok";"30";"30";"19-2-2024"
"783";"2024-02-19";"930";"Roove Coffee 1 box 20 sachet";"00197";"Gudang Depok";"30";"30";"19-2-2024"
"784";"2024-02-19";"931";"Roove Blueberi isi 50";"00098";"Gudang Depok";"150";"138";"19-2-2024"
"785";"2024-02-19";"986";"Golo Royal Jelly Box";"00141";"Gudang Depok";"120";"120";"19-2-2024"
"786";"2024-02-19";"987";"Baby Gold 0,002gr";"00066";"Gudang Depok";"100";"100";"18-2-2024"
"787";"2024-02-19";"977";"Flimeal Strawberry Box";"00016";"Gudang Bekasi";"30";"30";"ok"
"788";"2024-02-19";"976";"Flimeal Vanilla Box";"00020";"Gudang Bekasi";"30";"30";"ok"
"789";"2024-02-19";"1004";"Flimty Raspberry Box";"00008";"gudang bandung";"2";"2";"PENYESUAIAN STOK 19022024"
"790";"2024-02-19";"1009";"Metafiber Leci";"00003";"Gudang Bekasi";"3";"3";"PENYESUAIAN STOK 19022024"
"791";"2024-02-19";"1008";"Golo Royal Jelly Sachet";"00142";"Gudang Bekasi";"66";"66";"PENYESUAIAN STOK 19022024"
"792";"2024-02-19";"1007";"Balans Recharge Sachet";"00051";"Gudang Bekasi";"1";"1";"PENYESUAIAN STOK 19022024"
"793";"2024-02-19";"1006";"Balans Recharge Sachet";"00051";"Gudang Bekasi";"1";"1";"PENYESUAIAN STOK 19022024"
"794";"2024-02-19";"1005";"Metafiber Jeruk";"00002";"Gudang Bekasi";"20";"20";"PENYESUAIAN STOK 19022024"
"795";"2024-02-19";"1011";"Herslim Box";"00035";"Gudang Depok";"2";"2";"Toples mau expired"
"796";"2024-02-19";"1012";"Shaker Flimty";"00100";"Gudang Depok";"30";"30";"Oke"
"797";"2024-02-20";"996";"Hotto Purto Pouch";"00124";"Gudang Depok";"240";"240";"19-02-2024"
"798";"2024-02-20";"993";"Golo Royal Jelly Box";"00141";"Gudang Bekasi";"120";"120";"ok"
"799";"2024-02-20";"1010";"Flimty Blackcurrant Box";"00006";"Gudang Bekasi";"60";"60";"ok"
"800";"2024-02-20";"1002";"Roove Blueberi isi 10";"00121";"Gudang Bekasi";"36";"36";"ok"
"801";"2024-02-20";"1001";"Roove Blueberi isi 50";"00098";"Gudang Bekasi";"60";"60";"ok"
"802";"2024-02-20";"1000";"Roove Strawberry 1 box 20 sachet";"00188";"Gudang Bekasi";"20";"20";"ok"
"803";"2024-02-20";"999";"Roove Blueberi isi 20";"00097";"Gudang Bekasi";"100";"100";"ok"
"804";"2024-02-20";"998";"Hotto Purto Pouch";"00124";"Gudang Bekasi";"90";"90";"ok"
"805";"2024-02-20";"1015";"Gelas Plastik";"00168";"Gudang Depok";"360";"360";"20-02-2024"
"806";"2024-02-20";"1014";"Hotto Purto Pouch";"00124";"Gudang Depok";"240";"240";"20-02-2024"
"807";"2024-02-21";"997";"Madu Bajakah Borneo";"00060";"Gudang Depok";"96";"96";"21-02-2024"
"808";"2024-02-23";"931";"Roove Blueberi isi 50";"00098";"Gudang Depok";"12";"12";"22-02-2024"
"809";"2024-02-23";"991";"Metafiber Jeruk";"00002";"Gudang Depok";"60";"60";"22-02-2024"
"810";"2024-02-23";"992";"Mganik 3Peptide";"00118";"Gudang Depok";"40";"40";"22-02-2024"
"811";"2024-02-23";"1020";"Madu Ratik";"00046";"Gudang Depok";"25";"25";"22-02-2024"
"812";"2024-02-23";"1021";"Madu Vitagerd";"00045";"Gudang Depok";"275";"275";"22-02-2024"
"813";"2024-02-23";"1023";"Madu Gutamin";"00077";"Gudang Depok";"150";"150";"22-02-2024"
"814";"2024-02-23";"1022";"Madu Dukosam";"00047";"Gudang Depok";"25";"25";"22-02-2024"
"815";"2024-02-23";"1024";"Madu Lamain";"00048";"Gudang Depok";"25";"25";"22-02-2024"
"816";"2024-02-23";"995";"Clorismen Brightening Serum";"00110";"Gudang Depok";"10";"10";"23-02-2024"
"817";"2024-02-23";"1018";"Susu Kambing Skygoat";"00133";"Gudang Bekasi";"120";"120";"ok"
"818";"2024-02-23";"1017";"Propolis Hepro";"00134";"Gudang Bekasi";"120";"120";"ok"
"819";"2024-02-23";"1016";"Hotto Purto Pouch";"00124";"Gudang Bekasi";"390";"390";"ok"
"820";"2024-02-23";"1036";"Diabcon";"00068";"Gudang Bekasi";"10";"10";"ok"
"821";"2024-02-23";"1040";"Diabcon";"00068";"Gudang Depok";"10";"10";"rancu"
"822";"2024-02-23";"1044";"Ecer Tisu Magic Mirai Sachet";"00184";"gudang bandung";"39";"39";"old"
"823";"2024-02-23";"1043";"Botol Kaca Nice 400ml";"00194";"gudang bandung";"46";"46";"new"
"824";"2024-02-23";"1026";"Kopi SLB Box";"00029";"gudang bandung";"48";"48";"new"
"825";"2024-02-24";"1034";"Madu Vitagerd";"00045";"Gudang Bekasi";"200";"200";"ok"
"826";"2024-02-24";"1041";"Madu Lamain";"00048";"Gudang Bekasi";"20";"20";"ok"
"827";"2024-02-24";"1039";"Madu Ratik";"00046";"Gudang Bekasi";"15";"15";"ok"
"828";"2024-02-24";"1038";"Madu Dukosam";"00047";"Gudang Bekasi";"35";"35";"ok"
"829";"2024-02-24";"1037";"Madu Gutamin";"00077";"Gudang Bekasi";"125";"125";"ok"
"830";"2024-02-24";"1035";"Mganik 3Peptide";"00118";"Gudang Bekasi";"20";"20";"ok"
"831";"2024-02-24";"1025";"Golo Banana Box";"00033";"Gudang Bekasi";"60";"60";"ok"
"832";"2024-02-24";"1019";"Golo Royal Jelly Box";"00141";"Gudang Bekasi";"120";"120";"ok"
"833";"2024-02-25";"1042";"Botol Kaca Nice 400ml";"00194";"Gudang Bekasi";"80";"80";"ok"
"834";"2024-02-25";"994";"Metafiber Jeruk";"00002";"Gudang Bekasi";"100";"100";"ok"
"835";"2024-02-25";"1032";"Mganik 3Peptide";"00118";"Gudang Bekasi";"80";"80";"ok"
"836";"2024-02-25";"1033";"Multigrain 500gr";"00001";"Gudang Bekasi";"48";"48";"ok"
"837";"2024-02-26";"1053";"Metafiber Leci";"00003";"gudang bandung";"1";"1";"PENYESUAIAN STOK 26022024"
"838";"2024-02-26";"1003";"Multigrain 500gr";"00001";"gudang bandung";"1";"1";"PENYESUAIAN STOK 26022024"
"839";"2024-02-26";"723";"Hotto Purto Pouch";"00124";"gudang bandung";"15";"15";"PENYESUAIAN STOK 26022024"
"840";"2024-02-26";"1055";"Metafiber Leci";"00003";"Gudang Bekasi";"1";"1";"PENYESUAIAN STOK 26022024"
"841";"2024-02-26";"1054";"Multigrain 500gr";"00001";"Gudang Bekasi";"2";"2";"PENYESUAIAN STOK 26022024"
"842";"2024-02-27";"1029";"Multigrain 500gr";"00001";"Gudang Depok";"48";"48";"26-02-2024"
"843";"2024-02-27";"1030";"Multigrain 1500gr";"00004";"Gudang Depok";"8";"8";"26-02-2024"
"844";"2024-02-27";"1031";"Metafiber Leci";"00003";"Gudang Depok";"40";"40";"26-02-2024"
"845";"2024-02-27";"1069";"Hotto Purto Pouch";"00124";"Gudang Bekasi";"2";"2";"PENYESUAIAN 26022024"
"846";"2024-02-27";"1068";"Roove Blueberi isi 50";"00098";"Gudang Bekasi";"1";"1";"PENYESUAIAN 26022024"
"847";"2024-02-27";"323";"Esbi Orevin";"00071";"Ngurangin stok lebih";"10";"10";"PENYESUAIAN 26022024"
"848";"2024-02-27";"1047";"Flimty Blackcurrant Box";"00006";"Gudang Bekasi";"30";"30";"ok"
"849";"2024-02-27";"1048";"Flimeal Coklat Susu Box";"00012";"Gudang Bekasi";"30";"30";"ok"
"850";"2024-02-27";"1049";"Flimty Raspberry Box";"00008";"Gudang Bekasi";"30";"30";"ok"
"851";"2024-02-27";"1050";"Flimburn";"00024";"Gudang Bekasi";"30";"30";"ok"
"852";"2024-02-27";"1027";"Sopalpha Box";"00022";"Gudang Bekasi";"76";"76";"ok"
"853";"2024-02-27";"1066";"Hotto Purto Pouch";"00124";"Gudang Depok";"240";"240";"27-02-2024"
"854";"2024-02-27";"1076";"Tumbler plastik 500ml";"00193";"Gudang Depok";"1";"1";"PENYESUAIAN 27022024"
"855";"2024-02-27";"1075";"Flimty Raspberry Sachet";"00009";"Gudang Depok";"5";"5";"PENYESUAIAN 27022024"
"856";"2024-02-28";"1045";"Metafiber Leci";"00003";"Gudang Bekasi";"80";"80";"ok"
"857";"2024-02-28";"1046";"Multigrain 500gr";"00001";"Gudang Bekasi";"24";"24";"ok"
"858";"2024-02-28";"1061";"Flimty Mango Box";"00010";"Gudang Bekasi";"60";"60";"ok"
"859";"2024-02-28";"1060";"Flimty Raspberry Box";"00008";"Gudang Bekasi";"60";"60";"ok"
"860";"2024-02-28";"1079";"Flimeal Coklat Susu Box";"00012";"Gudang Depok";"30";"30";"27-02-2024"
"861";"2024-02-28";"1078";"Flimty Blackcurrant Box";"00006";"Gudang Depok";"60";"60";"27-02-2024"
"862";"2024-02-28";"1080";"Flimcol 1 box";"00203";"Gudang Depok";"30";"30";"27-02-2024"
"863";"2024-02-28";"1056";"Golo Royal Jelly Box";"00141";"Gudang Bekasi";"120";"120";"ok"
"864";"2024-02-29";"1081";"Baby Gold 0,002gr";"00066";"Gudang Depok";"100";"100";"28-02-2024"
"865";"2024-02-29";"1077";"Kopi SLB Box";"00029";"Gudang Bekasi";"200";"200";"ok"
"866";"2024-02-29";"1087";"Golo Banana Box";"00033";"Gudang Depok";"120";"120";"29-02-2024"
"867";"2024-02-29";"1074";"Olimex Kapsul Gabus";"00092";"Gudang Depok";"10";"10";"29-02-2024"
"868";"2024-02-29";"1073";"Renarkos";"00096";"Gudang Depok";"10";"10";"29-02-2024"
"869";"2024-02-29";"1072";"Esbi Orevin";"00071";"Gudang Depok";"10";"10";"29-02-2024"
"870";"2024-02-29";"1071";"Binasol";"00067";"Gudang Depok";"20";"20";"29-02-2024"
"871";"2024-02-29";"1067";"Momsy Susu Box";"00122";"Gudang Depok";"30";"30";"29-02-2024"
"872";"2024-02-29";"1085";"Tumbler plastik 500ml";"00193";"Gudang Bekasi";"80";"80";"ok"
