﻿INV/20240131/MPL/3712725403;33670;ego store official Tokopedia reguler
INV/20240131/MPL/3712725403;23875;ego store official Tokopedia reguler
INV/20240127/MPL/3704087042;793650;ego store official Tokopedia reguler
INV/20240130/MPL/3710392956;89466;ego store official Tokopedia reguler
INV/20240130/MPL/3710392956;89280;ego store official Tokopedia reguler
INV/20240128/MPL/3705955197;178932;ego store official Tokopedia reguler
INV/20240126/MPL/3701038541;567580;ego store official Tokopedia reguler
INV/20240126/MPL/3701038541;570000;ego store official Tokopedia reguler
INV/20240201/MPL/3714832154;33670;ego store official Tokopedia reguler
INV/20240128/MPL/3706129171;89466;ego store official Tokopedia reguler
INV/20240128/MPL/3706129171;89280;ego store official Tokopedia reguler
INV/20240130/MPL/3710774483;67340;ego store official Tokopedia reguler
INV/20240130/MPL/3709645987;577200;ego store official Tokopedia reguler
INV/20240130/MPL/3709645987;590000;ego store official Tokopedia reguler
INV/20240131/MPL/3711713497;288600;ego store official Tokopedia reguler
INV/20240129/MPL/3708258429;89466;ego store official Tokopedia reguler
INV/20240129/MPL/3708258429;89280;ego store official Tokopedia reguler
INV/20240131/MPL/3712664423;112690;ego store official Tokopedia reguler
INV/20240128/MPL/3705412048;33670;ego store official Tokopedia reguler
INV/20240128/MPL/3705412048;33600;ego store official Tokopedia reguler
INV/20240131/MPL/3712494491;178932;ego store official Tokopedia reguler
INV/20240202/MPL/3717509791;278018;ego store official Tokopedia reguler
INV/20240202/MPL/3717509791;279000;ego store official Tokopedia reguler
INV/20240131/MPL/3712318725;67340;ego store official Tokopedia reguler
INV/20240131/MPL/3712318725;67200;ego store official Tokopedia reguler
INV/20240130/MPL/3710224596;283790;ego store official Tokopedia reguler
INV/20240130/MPL/3710224596;285000;ego store official Tokopedia reguler
INV/20240202/MPL/3717170684;33670;ego store official Tokopedia reguler
INV/20240131/MPL/3712464491;89466;ego store official Tokopedia reguler
INV/20240131/MPL/3712464491;89280;ego store official Tokopedia reguler
INV/20240202/MPL/3717524462;89466;ego store official Tokopedia reguler
INV/20240129/MPL/3709318801;33670;ego store official Tokopedia reguler
INV/20240129/MPL/3709318801;33600;ego store official Tokopedia reguler
INV/20240128/MPL/3705403143;548340;ego store official Tokopedia reguler
INV/20240128/MPL/3705403143;560000;ego store official Tokopedia reguler
INV/20240131/MPL/3712692652;112690;ego store official Tokopedia reguler
INV/20240131/MPL/3712692652;113280;ego store official Tokopedia reguler
INV/20240131/MPL/3712941096;283790;ego store official Tokopedia reguler
INV/20240202/MPL/3717364888;67340;ego store official Tokopedia reguler
INV/20240202/MPL/3717364888;67200;ego store official Tokopedia reguler
INV/20240130/MPL/3710508987;89466;ego store official Tokopedia reguler
INV/20240130/MPL/3710508987;89280;ego store official Tokopedia reguler
INV/20240203/MPL/3719215508;89466;ego store official Tokopedia reguler
INV/20240203/MPL/3718423020;178932;ego store official Tokopedia reguler
INV/20240130/MPL/3710015514;33425;ego store official Tokopedia reguler
INV/20240130/MPL/3710616355;283790;ego store official Tokopedia reguler
INV/20240130/MPL/3710616355;285000;ego store official Tokopedia reguler
INV/20240204/MPL/3720456832;149110;ego store official Tokopedia reguler
INV/20240129/MPL/3708190293;13752;ego store official Tokopedia reguler
INV/20240129/MPL/3708190293;13824;ego store official Tokopedia reguler
INV/20240129/MPL/3708190293;9550;ego store official Tokopedia reguler
INV/20240129/MPL/3708190293;9600;ego store official Tokopedia reguler
INV/20240129/MPL/3708190293;27599;ego store official Tokopedia reguler
INV/20240129/MPL/3708190293;27744;ego store official Tokopedia reguler
INV/20240202/MPL/3716109231;288600;ego store official Tokopedia reguler
INV/20240130/MPL/3710286673;33670;ego store official Tokopedia reguler
INV/20240130/MPL/3710286673;33600;ego store official Tokopedia reguler
INV/20240130/MPL/3710286673;89466;ego store official Tokopedia reguler
INV/20240130/MPL/3710286673;89280;ego store official Tokopedia reguler
INV/20240202/MPL/3716371480;33670;ego store official Tokopedia reguler
INV/20240201/MPL/3713830276;288600;ego store official Tokopedia reguler
INV/20240201/MPL/3713830276;290000;ego store official Tokopedia reguler
INV/20240202/MPL/3717853168;364598;ego store official Tokopedia reguler
INV/20240202/MPL/3716959967;178932;ego store official Tokopedia reguler
INV/20240202/MPL/3716959967;178560;ego store official Tokopedia reguler
INV/20240202/MPL/3717708966;101010;ego store official Tokopedia reguler
INV/20240202/MPL/3717708966;89466;ego store official Tokopedia reguler
INV/20240205/MPL/3722461687;149110;ego store official Tokopedia reguler
INV/20240203/MPL/3719571317;89466;ego store official Tokopedia reguler
INV/20240203/MPL/3719794747;288600;ego store official Tokopedia reguler
INV/20240205/MPL/3722833863;149110;ego store official Tokopedia reguler
INV/20240202/MPL/3717233365;283790;ego store official Tokopedia reguler
INV/20240202/MPL/3717233365;285000;ego store official Tokopedia reguler
INV/20240201/MPL/3713918970;288600;ego store official Tokopedia reguler
INV/20240201/MPL/3713918970;290000;ego store official Tokopedia reguler
INV/20240204/MPL/3721396565;288600;ego store official Tokopedia reguler
INV/20240206/MPL/3724063137;33670;ego store official Tokopedia reguler
INV/20240204/MPL/3720963022;89466;ego store official Tokopedia reguler
INV/20240202/MPL/3716208177;56345;ego store official Tokopedia reguler
INV/20240202/MPL/3716208177;56640;ego store official Tokopedia reguler
INV/20240202/MPL/3718059884;288600;ego store official Tokopedia reguler
INV/20240202/MPL/3718059884;290000;ego store official Tokopedia reguler
INV/20240203/MPL/3719365803;288600;ego store official Tokopedia reguler
INV/20240204/MPL/3720455358;529100;ego store official Tokopedia reguler
INV/20240204/MPL/3720455358;530000;ego store official Tokopedia reguler
INV/20240205/MPL/3722962527;89466;ego store official Tokopedia reguler
INV/20240207/MPL/3725988832;67340;ego store official Tokopedia reguler
INV/20240207/MPL/3726997440;89466;ego store official Tokopedia reguler
INV/20240203/MPL/3719143795;79365;ego store official Tokopedia reguler
INV/20240203/MPL/3719143795;79200;ego store official Tokopedia reguler
INV/20240207/MPL/3727262109;89466;ego store official Tokopedia reguler
INV/20240206/MPL/3724000645;89466;ego store official Tokopedia reguler
INV/20240206/MPL/3724000645;89280;ego store official Tokopedia reguler
INV/20240208/MPL/3727753921;149110;ego store official Tokopedia reguler
INV/20240208/MPL/3727971262;288600;ego store official Tokopedia reguler
INV/20240206/MPL/3724840071;149110;ego store official Tokopedia reguler
INV/20240205/MPL/3723170952;89466;ego store official Tokopedia reguler
INV/20240205/MPL/3723170952;89280;ego store official Tokopedia reguler
INV/20240208/MPL/3728263711;89466;ego store official Tokopedia reguler
INV/20240202/MPL/3718076437;283790;ego store official Tokopedia reguler
INV/20240202/MPL/3718076437;285500;ego store official Tokopedia reguler
INV/20240202/MPL/3718076437;336700;ego store official Tokopedia reguler
INV/20240202/MPL/3718076437;340500;ego store official Tokopedia reguler
INV/20240208/MPL/3728359486;89466;ego store official Tokopedia reguler
INV/20240204/MPL/3720392962;56345;ego store official Tokopedia reguler
INV/20240206/MPL/3725592288;548340;ego store official Tokopedia reguler
INV/20240206/MPL/3725592288;560000;ego store official Tokopedia reguler
INV/20240205/MPL/3723714952;288600;ego store official Tokopedia reguler
INV/20240208/MPL/3727940745;33670;ego store official Tokopedia reguler
INV/20240208/MPL/3728020548;33670;ego store official Tokopedia reguler
INV/20240208/MPL/3728020548;89466;ego store official Tokopedia reguler
INV/20240207/MPL/3725903662;112690;ego store official Tokopedia reguler
INV/20240207/MPL/3725903662;113280;ego store official Tokopedia reguler
INV/20240205/MPL/3723109455;67340;ego store official Tokopedia reguler
INV/20240205/MPL/3723109455;67200;ego store official Tokopedia reguler
INV/20240209/MPL/3730568660;89466;ego store official Tokopedia reguler
INV/20240206/MPL/3725602388;89466;ego store official Tokopedia reguler
INV/20240206/MPL/3725602388;89280;ego store official Tokopedia reguler
INV/20240210/MPL/3731292563;288600;ego store official Tokopedia reguler
INV/20240210/MPL/3730930387;89466;ego store official Tokopedia reguler
INV/20240204/MPL/3720630399;288600;ego store official Tokopedia reguler
INV/20240207/MPL/3727113390;33670;ego store official Tokopedia reguler
INV/20240209/MPL/3729674544;33670;ego store official Tokopedia reguler
INV/20240211/MPL/3732416023;149110;ego store official Tokopedia reguler
INV/20240209/MPL/3729821493;178932;ego store official Tokopedia reguler
INV/20240207/MPL/3725891074;89466;ego store official Tokopedia reguler
INV/20240207/MPL/3725891074;89280;ego store official Tokopedia reguler
INV/20240208/MPL/3728741634;13752;ego store official Tokopedia reguler
INV/20240208/MPL/3728741634;13824;ego store official Tokopedia reguler
INV/20240208/MPL/3728741634;9550;ego store official Tokopedia reguler
INV/20240208/MPL/3728741634;9600;ego store official Tokopedia reguler
INV/20240208/MPL/3728741634;27599;ego store official Tokopedia reguler
INV/20240208/MPL/3728741634;27744;ego store official Tokopedia reguler
INV/20240206/MPL/3725687240;89466;ego store official Tokopedia reguler
INV/20240206/MPL/3725687240;89280;ego store official Tokopedia reguler
INV/20240207/MPL/3726139554;281725;ego store official Tokopedia reguler
INV/20240207/MPL/3726139554;285000;ego store official Tokopedia reguler
INV/20240210/MPL/3730978691;104954;ego store official Tokopedia reguler
INV/20240210/MPL/3730978691;105504;ego store official Tokopedia reguler
INV/20240207/MPL/3726600063;548340;ego store official Tokopedia reguler
INV/20240207/MPL/3726600063;560000;ego store official Tokopedia reguler
INV/20240209/MPL/3730624480;89466;ego store official Tokopedia reguler
INV/20240209/MPL/3729809410;112690;ego store official Tokopedia reguler
INV/20240209/MPL/3729809410;113280;ego store official Tokopedia reguler
INV/20240212/MPL/3733449565;288600;ego store official Tokopedia reguler
INV/20240208/MPL/3728920514;152381;ego store official Tokopedia reguler
INV/20240208/MPL/3728920514;152064;ego store official Tokopedia reguler
INV/20240209/MPL/3730419230;33670;ego store official Tokopedia reguler
INV/20240209/MPL/3730419230;33670;ego store official Tokopedia reguler
INV/20240213/MPL/3735489502;178932;ego store official Tokopedia reguler
INV/20240210/MPL/3731207568;104954;ego store official Tokopedia reguler
INV/20240210/MPL/3731207568;105504;ego store official Tokopedia reguler
INV/20240208/MPL/3729036492;89466;ego store official Tokopedia reguler
INV/20240208/MPL/3729036492;89280;ego store official Tokopedia reguler
INV/20240211/MPL/3732473614;288600;ego store official Tokopedia reguler
INV/20240210/MPL/3731169901;89466;ego store official Tokopedia reguler
INV/20240211/MPL/3731966813;33670;ego store official Tokopedia reguler
INV/20240209/MPL/3729702814;264550;ego store official Tokopedia reguler
INV/20240209/MPL/3729702814;265000;ego store official Tokopedia reguler
INV/20240213/MPL/3736155941;149110;ego store official Tokopedia reguler
INV/20240211/MPL/3732414003;283790;ego store official Tokopedia reguler
INV/20240211/MPL/3732414003;285000;ego store official Tokopedia reguler
INV/20240213/MPL/3735332158;101010;ego store official Tokopedia reguler
INV/20240214/MPL/3737378353;288600;ego store official Tokopedia reguler
INV/20240210/MPL/3731706889;56345;ego store official Tokopedia reguler
INV/20240210/MPL/3731706889;56640;ego store official Tokopedia reguler
INV/20240213/MPL/3736126934;89466;ego store official Tokopedia reguler
INV/20240211/MPL/3733056039;89466;ego store official Tokopedia reguler
INV/20240211/MPL/3733056039;89280;ego store official Tokopedia reguler
INV/20240212/MPL/3734645997;281725;ego store official Tokopedia reguler
INV/20240212/MPL/3734645997;285000;ego store official Tokopedia reguler
INV/20240211/MPL/3733164603;288600;ego store official Tokopedia reguler
INV/20240211/MPL/3733126757;288600;ego store official Tokopedia reguler
INV/20240211/MPL/3733126757;290000;ego store official Tokopedia reguler
INV/20240214/MPL/3737146843;89466;ego store official Tokopedia reguler
INV/20240207/MPL/3726358228;178932;ego store official Tokopedia reguler
INV/20240213/MPL/3735474625;89466;ego store official Tokopedia reguler
INV/20240215/MPL/3738180793;89466;ego store official Tokopedia reguler
INV/20240210/MPL/3730688221;264550;ego store official Tokopedia reguler
INV/20240210/MPL/3730688221;265000;ego store official Tokopedia reguler
INV/20240210/MPL/3731534719;283790;ego store official Tokopedia reguler
INV/20240210/MPL/3731534719;285000;ego store official Tokopedia reguler
INV/20240210/MPL/3731517292;89466;ego store official Tokopedia reguler
INV/20240210/MPL/3731517292;89280;ego store official Tokopedia reguler
INV/20240215/MPL/3738746860;89466;ego store official Tokopedia reguler
INV/20240209/MPL/3729556344;56345;ego store official Tokopedia reguler
INV/20240209/MPL/3729556344;56640;ego store official Tokopedia reguler
INV/20240210/MPL/3731858543;178932;ego store official Tokopedia reguler
INV/20240212/MPL/3734281086;178932;ego store official Tokopedia reguler
INV/20240212/MPL/3734281086;178560;ego store official Tokopedia reguler
INV/20240213/MPL/3736541378;89466;ego store official Tokopedia reguler
INV/20240211/MPL/3731867403;567580;ego store official Tokopedia reguler
INV/20240211/MPL/3731867403;570000;ego store official Tokopedia reguler
INV/20240211/MPL/3732550481;178932;ego store official Tokopedia reguler
INV/20240211/MPL/3732550481;179882;ego store official Tokopedia reguler
INV/20240211/MPL/3732550481;112690;ego store official Tokopedia reguler
INV/20240211/MPL/3732550481;114118;ego store official Tokopedia reguler
INV/20240215/MPL/3737946768;101010;ego store official Tokopedia reguler
INV/20240213/MPL/3735794106;281725;ego store official Tokopedia reguler
INV/20240213/MPL/3735794106;285000;ego store official Tokopedia reguler
INV/20240216/MPL/3740084213;89466;ego store official Tokopedia reguler
INV/20240215/MPL/3738582676;33670;ego store official Tokopedia reguler
INV/20240215/MPL/3738582676;33600;ego store official Tokopedia reguler
INV/20240214/MPL/3736999469;33670;ego store official Tokopedia reguler
INV/20240214/MPL/3736999469;56345;ego store official Tokopedia reguler
INV/20240214/MPL/3737705640;56345;ego store official Tokopedia reguler
INV/20240214/MPL/3737705640;56640;ego store official Tokopedia reguler
INV/20240215/MPL/3738360686;67340;ego store official Tokopedia reguler
INV/20240210/MPL/3731847338;89466;ego store official Tokopedia reguler
INV/20240210/MPL/3731847338;89280;ego store official Tokopedia reguler
INV/20240213/MPL/3735761581;89466;ego store official Tokopedia reguler
INV/20240213/MPL/3735761581;89280;ego store official Tokopedia reguler
INV/20240215/MPL/3738764773;33670;ego store official Tokopedia reguler
INV/20240215/MPL/3738711590;89466;ego store official Tokopedia reguler
INV/20240215/MPL/3738761746;112690;ego store official Tokopedia reguler
INV/20240215/MPL/3738761746;113280;ego store official Tokopedia reguler
INV/20240215/MPL/3738844097;67340;ego store official Tokopedia reguler
INV/20240216/MPL/3740420402;149110;ego store official Tokopedia reguler
INV/20240215/MPL/3738698468;548340;ego store official Tokopedia reguler
INV/20240214/MPL/3737349798;56345;ego store official Tokopedia reguler
INV/20240214/MPL/3737349798;56640;ego store official Tokopedia reguler
INV/20240218/MPL/3743398017;288600;ego store official Tokopedia reguler
INV/20240215/MPL/3738133978;23875;ego store official Tokopedia reguler
INV/20240216/MPL/3740553717;89466;ego store official Tokopedia reguler
INV/20240216/MPL/3739998127;89466;ego store official Tokopedia reguler
INV/20240217/MPL/3742058881;89466;ego store official Tokopedia reguler
INV/20240218/MPL/3743354556;178932;ego store official Tokopedia reguler
INV/20240215/MPL/3738917385;33670;ego store official Tokopedia reguler
INV/20240215/MPL/3739189817;288600;ego store official Tokopedia reguler
INV/20240215/MPL/3739189817;290000;ego store official Tokopedia reguler
INV/20240216/MPL/3739635805;283790;ego store official Tokopedia reguler
INV/20240216/MPL/3739635805;285000;ego store official Tokopedia reguler
INV/20240215/MPL/3739008336;149110;ego store official Tokopedia reguler
INV/20240216/MPL/3740657183;178932;ego store official Tokopedia reguler
INV/20240216/MPL/3740657183;178560;ego store official Tokopedia reguler
INV/20240217/MPL/3741303798;33670;ego store official Tokopedia reguler
INV/20240214/MPL/3737104791;336700;ego store official Tokopedia reguler
INV/20240216/MPL/3740266268;288600;ego store official Tokopedia reguler
INV/20240216/MPL/3740266268;290000;ego store official Tokopedia reguler
INV/20240217/MPL/3741943676;67340;ego store official Tokopedia reguler
INV/20240216/MPL/3739903199;288600;ego store official Tokopedia reguler
INV/20240216/MPL/3739903199;290000;ego store official Tokopedia reguler
INV/20240216/MPL/3740325342;178932;ego store official Tokopedia reguler
INV/20240216/MPL/3740325342;178560;ego store official Tokopedia reguler
INV/20240216/MPL/3739936493;112690;ego store official Tokopedia reguler
INV/20240216/MPL/3739936493;113280;ego store official Tokopedia reguler
INV/20240214/MPL/3737109207;288600;ego store official Tokopedia reguler
INV/20240214/MPL/3737109207;290000;ego store official Tokopedia reguler
INV/20240217/MPL/3742129661;89466;ego store official Tokopedia reguler
INV/20240217/MPL/3742129661;89280;ego store official Tokopedia reguler
INV/20240219/MPL/3745846449;89466;ego store official Tokopedia reguler
INV/20240219/MPL/3744465654;288600;ego store official Tokopedia reguler
INV/20240219/MPL/3744465654;290000;ego store official Tokopedia reguler
INV/20240214/MPL/3737263012;56345;ego store official Tokopedia reguler
INV/20240214/MPL/3737263012;56640;ego store official Tokopedia reguler
INV/20240214/MPL/3737263012;66850;ego store official Tokopedia reguler
INV/20240214/MPL/3737263012;67200;ego store official Tokopedia reguler
INV/20240217/MPL/3741920029;67340;ego store official Tokopedia reguler
INV/20240217/MPL/3741920029;67200;ego store official Tokopedia reguler
INV/20240219/MPL/3745551571;89466;ego store official Tokopedia reguler
INV/20240220/MPL/3747546677;89466;ego store official Tokopedia reguler
INV/20240219/MPL/3744458611;56345;ego store official Tokopedia reguler
INV/20240219/MPL/3744458611;56640;ego store official Tokopedia reguler
INV/20240217/MPL/3741568612;288600;ego store official Tokopedia reguler
INV/20240219/MPL/3744593975;288600;ego store official Tokopedia reguler
INV/20240221/MPL/3749233485;89466;ego store official Tokopedia reguler
INV/20240219/MPL/3745103935;288600;ego store official Tokopedia reguler
INV/20240217/MPL/3741859610;129870;ego store official Tokopedia reguler
INV/20240220/MPL/3748262657;89466;ego store official Tokopedia reguler
INV/20240220/MPL/3748262657;89280;ego store official Tokopedia reguler
INV/20240220/MPL/3748683278;89466;ego store official Tokopedia reguler
INV/20240220/MPL/3748683278;89280;ego store official Tokopedia reguler
INV/20240217/MPL/3742707583;149110;ego store official Tokopedia reguler
INV/20240217/MPL/3742707583;178932;ego store official Tokopedia reguler
INV/20240218/MPL/3742747634;178932;ego store official Tokopedia reguler
INV/20240219/MPL/3744795631;89466;ego store official Tokopedia reguler
INV/20240219/MPL/3744795631;89280;ego store official Tokopedia reguler
INV/20240220/MPL/3748532554;89466;ego store official Tokopedia reguler
INV/20240221/MPL/3750029392;283790;ego store official Tokopedia reguler
INV/20240221/MPL/3750029392;285000;ego store official Tokopedia reguler
INV/20240217/MPL/3742558069;89466;ego store official Tokopedia reguler
INV/20240220/MPL/3747825463;288600;ego store official Tokopedia reguler
INV/20240220/MPL/3747183091;283790;ego store official Tokopedia reguler
INV/20240220/MPL/3747183091;285000;ego store official Tokopedia reguler
INV/20240221/MPL/3750066764;33670;ego store official Tokopedia reguler
INV/20240221/MPL/3750066764;33600;ego store official Tokopedia reguler
INV/20240221/MPL/3750066764;33670;ego store official Tokopedia reguler
INV/20240221/MPL/3750066764;33600;ego store official Tokopedia reguler
INV/20240222/MPL/3751547015;89466;ego store official Tokopedia reguler
INV/20240221/MPL/3749563348;288600;ego store official Tokopedia reguler
INV/20240220/MPL/3748161914;178932;ego store official Tokopedia reguler
INV/20240220/MPL/3748161914;178560;ego store official Tokopedia reguler
INV/20240219/MPL/3745935807;548340;ego store official Tokopedia reguler
INV/20240219/MPL/3745935807;560000;ego store official Tokopedia reguler
INV/20240213/MPL/3736196124;33670;ego store official Tokopedia reguler
INV/20240213/MPL/3736196124;33670;ego store official Tokopedia reguler
INV/20240221/MPL/3750056300;281725;ego store official Tokopedia reguler
INV/20240218/MPL/3744105349;178932;ego store official Tokopedia reguler
INV/20240218/MPL/3744105349;178560;ego store official Tokopedia reguler
INV/20240220/MPL/3748705392;33670;ego store official Tokopedia reguler
INV/20240221/MPL/3749358831;548340;ego store official Tokopedia reguler
INV/20240221/MPL/3750210608;56345;ego store official Tokopedia reguler
INV/20240221/MPL/3750210608;56640;ego store official Tokopedia reguler
INV/20240222/MPL/3750919770;33670;ego store official Tokopedia reguler
INV/20240222/MPL/3751680829;89466;ego store official Tokopedia reguler
INV/20240220/MPL/3747381539;89466;ego store official Tokopedia reguler
INV/20240220/MPL/3747381539;89280;ego store official Tokopedia reguler
INV/20240222/MPL/3751649679;89466;ego store official Tokopedia reguler
INV/20240222/MPL/3752248139;288600;ego store official Tokopedia reguler
INV/20240222/MPL/3752248139;290000;ego store official Tokopedia reguler
INV/20240221/MPL/3750554812;288600;ego store official Tokopedia reguler
INV/20240221/MPL/3750554812;290000;ego store official Tokopedia reguler
INV/20240219/MPL/3744778541;288600;ego store official Tokopedia reguler
INV/20240221/MPL/3749991718;33670;ego store official Tokopedia reguler
INV/20240221/MPL/3749991718;33600;ego store official Tokopedia reguler
INV/20240225/MPL/3756197474;149110;ego store official Tokopedia reguler
INV/20240223/MPL/3753464722;288600;ego store official Tokopedia reguler
INV/20240223/MPL/3753464722;290000;ego store official Tokopedia reguler
INV/20240220/MPL/3748906894;33670;ego store official Tokopedia reguler
INV/20240220/MPL/3748906894;33600;ego store official Tokopedia reguler
INV/20240223/MPL/3753182104;89466;ego store official Tokopedia reguler
INV/20240223/MPL/3753182104;113516;ego store official Tokopedia reguler
INV/20240222/MPL/3752526223;89466;ego store official Tokopedia reguler
INV/20240222/MPL/3750890653;2886000;ego store official Tokopedia reguler
INV/20240222/MPL/3750890653;2970000;ego store official Tokopedia reguler
INV/20240224/MPL/3754868437;67340;ego store official Tokopedia reguler
INV/20240224/MPL/3754868437;67200;ego store official Tokopedia reguler
INV/20240224/MPL/3754531802;89466;ego store official Tokopedia reguler
INV/20240226/MPL/3760263759;105820;ego store official Tokopedia reguler
INV/20240222/MPL/3752078668;56345;ego store official Tokopedia reguler
INV/20240222/MPL/3752078668;56640;ego store official Tokopedia reguler
INV/20240223/MPL/3753349183;112690;ego store official Tokopedia reguler
INV/20240223/MPL/3753349183;113280;ego store official Tokopedia reguler
INV/20240223/MPL/3754327236;89466;ego store official Tokopedia reguler
INV/20240222/MPL/3751629912;89466;ego store official Tokopedia reguler
INV/20240222/MPL/3752192758;567580;ego store official Tokopedia reguler
INV/20240222/MPL/3752192758;570000;ego store official Tokopedia reguler
INV/20240224/MPL/3755182173;149110;ego store official Tokopedia reguler
INV/20240224/MPL/3755182173;148800;ego store official Tokopedia reguler
INV/20240225/MPL/3757678899;89466;ego store official Tokopedia reguler
INV/20240226/MPL/3759268039;288600;ego store official Tokopedia reguler
INV/20240226/MPL/3759268039;290000;ego store official Tokopedia reguler
INV/20240226/MPL/3759193680;67340;ego store official Tokopedia reguler
INV/20240226/MPL/3759193680;67200;ego store official Tokopedia reguler
INV/20240226/MPL/3759305004;178932;ego store official Tokopedia reguler
INV/20240225/MPL/3757572512;178932;ego store official Tokopedia reguler
INV/20240225/MPL/3757572512;178560;ego store official Tokopedia reguler
INV/20240228/MPL/3763351554;149110;ego store official Tokopedia reguler
INV/20240225/MPL/3756650524;288600;ego store official Tokopedia reguler
INV/20240228/MPL/3763930820;178932;ego store official Tokopedia reguler
INV/20240226/MPL/3760081681;264550;ego store official Tokopedia reguler
INV/20240226/MPL/3760081681;265000;ego store official Tokopedia reguler
INV/20240227/MPL/3761466741;288600;ego store official Tokopedia reguler
INV/20240226/MPL/3759029534;112690;ego store official Tokopedia reguler
INV/20240226/MPL/3759029534;113280;ego store official Tokopedia reguler
INV/20240227/MPL/3761626050;178932;ego store official Tokopedia reguler
INV/20240229/MPL/3765565147;89466;ego store official Tokopedia reguler
INV/20240227/MPL/3761445552;89466;ego store official Tokopedia reguler
INV/20240227/MPL/3761445552;89280;ego store official Tokopedia reguler
INV/20240227/MPL/3761445552;112690;ego store official Tokopedia reguler
INV/20240227/MPL/3761445552;113280;ego store official Tokopedia reguler
INV/20240228/MPL/3764333701;178932;ego store official Tokopedia reguler
INV/20240224/MPL/3754863976;56345;ego store official Tokopedia reguler
INV/20240224/MPL/3754863976;56640;ego store official Tokopedia reguler
INV/20240225/MPL/3756235676;264550;ego store official Tokopedia reguler
INV/20240226/MPL/3758735205;178932;ego store official Tokopedia reguler
INV/20240226/MPL/3758735205;178560;ego store official Tokopedia reguler
INV/20240226/MPL/3760661126;288600;ego store official Tokopedia reguler
INV/20240226/MPL/3760661126;297000;ego store official Tokopedia reguler
INV/20240226/MPL/3760661126;865800;ego store official Tokopedia reguler
INV/20240226/MPL/3760661126;891000;ego store official Tokopedia reguler
INV/20240227/MPL/3761387786;364598;ego store official Tokopedia reguler
INV/20240224/MPL/3755771760;33670;ego store official Tokopedia reguler
INV/20240224/MPL/3755771760;33600;ego store official Tokopedia reguler
INV/20240224/MPL/3755771760;67340;ego store official Tokopedia reguler
INV/20240224/MPL/3755771760;67200;ego store official Tokopedia reguler
INV/20240229/MPL/3766426703;283790;ego store official Tokopedia reguler
INV/20240229/MPL/3766426703;283790;ego store official Tokopedia reguler
INV/20240229/MPL/3765899014;149110;ego store official Tokopedia reguler
;;
;;
;;
;;
;;
;;
;;