﻿INV/20231230/MPL/3652585342;240500;ego store official Tokopedia reguler
INV/20231228/MPL/3648470417;28860;ego store official Tokopedia reguler
INV/20231228/MPL/3648470417;28800;ego store official Tokopedia reguler
INV/20231228/MPL/3648470417;28860;ego store official Tokopedia reguler
INV/20231228/MPL/3648470417;28800;ego store official Tokopedia reguler
INV/20231230/MPL/3652988105;254930;ego store official Tokopedia reguler
INV/20231228/MPL/3649658381;112690;ego store official Tokopedia reguler
INV/20231228/MPL/3649658381;113280;ego store official Tokopedia reguler
INV/20231230/MPL/3653030535;81770;ego store official Tokopedia reguler
INV/20231227/MPL/3647968391;81770;ego store official Tokopedia reguler
INV/20231227/MPL/3647968391;81600;ego store official Tokopedia reguler
INV/20231229/MPL/3651665787;56345;ego store official Tokopedia reguler
INV/20231229/MPL/3651665787;56640;ego store official Tokopedia reguler
INV/20231229/MPL/3651682727;81770;ego store official Tokopedia reguler
INV/20231229/MPL/3651682727;81600;ego store official Tokopedia reguler
INV/20231230/MPL/3653531974;129870;ego store official Tokopedia reguler
INV/20231229/MPL/3651281608;56345;ego store official Tokopedia reguler
INV/20231230/MPL/3652356508;160654;ego store official Tokopedia reguler
INV/20231230/MPL/3652356508;160320;ego store official Tokopedia reguler
INV/20231228/MPL/3650145183;283790;ego store official Tokopedia reguler
INV/20231228/MPL/3650145183;285000;ego store official Tokopedia reguler
INV/20231230/MPL/3652744456;240500;ego store official Tokopedia reguler
INV/20231230/MPL/3652744456;240000;ego store official Tokopedia reguler
INV/20231230/MPL/3652115955;81770;ego store official Tokopedia reguler
INV/20231230/MPL/3652115955;81600;ego store official Tokopedia reguler
INV/20231228/MPL/3649245836;240500;ego store official Tokopedia reguler
INV/20240101/MPL/3655549003;81770;ego store official Tokopedia reguler
INV/20231227/MPL/3647527348;240500;ego store official Tokopedia reguler
INV/20231227/MPL/3647527348;240000;ego store official Tokopedia reguler
INV/20240102/MPL/3658211948;336700;ego store official Tokopedia reguler
INV/20240102/MPL/3658211948;340000;ego store official Tokopedia reguler
INV/20231231/MPL/3654776197;81770;ego store official Tokopedia reguler
INV/20240103/MPL/3660315946;89466;ego store official Tokopedia reguler
INV/20240103/MPL/3659840381;89466;ego store official Tokopedia reguler
INV/20240101/MPL/3656547827;283790;ego store official Tokopedia reguler
INV/20240101/MPL/3656181454;160654;ego store official Tokopedia reguler
INV/20240101/MPL/3656181454;160320;ego store official Tokopedia reguler
INV/20240104/MPL/3661359123;89466;ego store official Tokopedia reguler
INV/20240101/MPL/3656323433;240500;ego store official Tokopedia reguler
INV/20231230/MPL/3652723288;129870;ego store official Tokopedia reguler
INV/20231230/MPL/3652723288;129600;ego store official Tokopedia reguler
INV/20231230/MPL/3653435139;81770;ego store official Tokopedia reguler
INV/20231230/MPL/3653435139;81600;ego store official Tokopedia reguler
INV/20240102/MPL/3658893212;56345;ego store official Tokopedia reguler
INV/20240104/MPL/3662116479;33670;ego store official Tokopedia reguler
INV/20240101/MPL/3656566350;81770;ego store official Tokopedia reguler
INV/20240101/MPL/3656566350;81600;ego store official Tokopedia reguler
INV/20240101/MPL/3655180513;81770;ego store official Tokopedia reguler
INV/20240101/MPL/3655180513;81600;ego store official Tokopedia reguler
INV/20240103/MPL/3659319070;89466;ego store official Tokopedia reguler
INV/20240103/MPL/3659324646;33670;ego store official Tokopedia reguler
INV/20240104/MPL/3662050713;178932;ego store official Tokopedia reguler
INV/20240105/MPL/3663201493;67340;ego store official Tokopedia reguler
INV/20240104/MPL/3661138197;89466;ego store official Tokopedia reguler
INV/20240104/MPL/3661268165;112690;ego store official Tokopedia reguler
INV/20240104/MPL/3661268165;113280;ego store official Tokopedia reguler
INV/20240105/MPL/3663977316;89466;ego store official Tokopedia reguler
INV/20240105/MPL/3663977316;89280;ego store official Tokopedia reguler
INV/20240101/MPL/3656104088;240500;ego store official Tokopedia reguler
INV/20240102/MPL/3657839404;169035;ego store official Tokopedia reguler
INV/20240102/MPL/3657839404;169920;ego store official Tokopedia reguler
INV/20231230/MPL/3652981047;281725;ego store official Tokopedia reguler
INV/20240106/MPL/3665615856;288600;ego store official Tokopedia reguler
INV/20240101/MPL/3656852201;283790;ego store official Tokopedia reguler
INV/20240101/MPL/3656852201;285000;ego store official Tokopedia reguler
INV/20240106/MPL/3665950388;89466;ego store official Tokopedia reguler
INV/20240106/MPL/3665950388;129870;ego store official Tokopedia reguler
INV/20240104/MPL/3662716971;112690;ego store official Tokopedia reguler
INV/20240104/MPL/3662716971;113280;ego store official Tokopedia reguler
INV/20240102/MPL/3658619066;56345;ego store official Tokopedia reguler
INV/20240102/MPL/3658619066;56640;ego store official Tokopedia reguler
INV/20240106/MPL/3665718007;33670;ego store official Tokopedia reguler
INV/20240106/MPL/3665718007;33600;ego store official Tokopedia reguler
INV/20240105/MPL/3664243084;89466;ego store official Tokopedia reguler
INV/20240105/MPL/3664078327;89466;ego store official Tokopedia reguler
INV/20240105/MPL/3664078327;89280;ego store official Tokopedia reguler
INV/20240103/MPL/3659138366;112690;ego store official Tokopedia reguler
INV/20240103/MPL/3659138366;113280;ego store official Tokopedia reguler
INV/20240106/MPL/3665610312;149110;ego store official Tokopedia reguler
INV/20240102/MPL/3658638801;548340;ego store official Tokopedia reguler
INV/20240102/MPL/3658638801;560000;ego store official Tokopedia reguler
INV/20240104/MPL/3662093614;283790;ego store official Tokopedia reguler
INV/20240104/MPL/3662093614;285000;ego store official Tokopedia reguler
INV/20240103/MPL/3659857199;112690;ego store official Tokopedia reguler
INV/20240103/MPL/3659857199;113280;ego store official Tokopedia reguler
INV/20240105/MPL/3664075096;89466;ego store official Tokopedia reguler
INV/20240103/MPL/3660118066;95238;ego store official Tokopedia reguler
INV/20240103/MPL/3660118066;95040;ego store official Tokopedia reguler
INV/20240102/MPL/3658972198;264550;ego store official Tokopedia reguler
INV/20240102/MPL/3658972198;265000;ego store official Tokopedia reguler
INV/20240101/MPL/3656505535;81770;ego store official Tokopedia reguler
INV/20240101/MPL/3656505535;81600;ego store official Tokopedia reguler
INV/20240104/MPL/3662171282;89466;ego store official Tokopedia reguler
INV/20240104/MPL/3662171282;89280;ego store official Tokopedia reguler
INV/20240108/MPL/3668469134;89466;ego store official Tokopedia reguler
INV/20240106/MPL/3665514568;101010;ego store official Tokopedia reguler
INV/20240106/MPL/3665514568;100800;ego store official Tokopedia reguler
INV/20240104/MPL/3662657590;567580;ego store official Tokopedia reguler
INV/20240104/MPL/3662657590;580000;ego store official Tokopedia reguler
INV/20231231/MPL/3654606071;238750;ego store official Tokopedia reguler
INV/20231231/MPL/3654606071;240000;ego store official Tokopedia reguler
INV/20231231/MPL/3654438096;81770;ego store official Tokopedia reguler
INV/20231231/MPL/3654438096;81600;ego store official Tokopedia reguler
INV/20240105/MPL/3664106742;56345;ego store official Tokopedia reguler
INV/20240105/MPL/3664106742;56640;ego store official Tokopedia reguler
INV/20240105/MPL/3663542846;89466;ego store official Tokopedia reguler
INV/20240105/MPL/3663542846;89280;ego store official Tokopedia reguler
INV/20240106/MPL/3665050942;283790;ego store official Tokopedia reguler
INV/20240106/MPL/3665050942;285000;ego store official Tokopedia reguler
INV/20240105/MPL/3664813316;56345;ego store official Tokopedia reguler
INV/20240105/MPL/3664813316;56640;ego store official Tokopedia reguler
INV/20240108/MPL/3669560893;149110;ego store official Tokopedia reguler
INV/20240106/MPL/3664920757;89466;ego store official Tokopedia reguler
INV/20240106/MPL/3664920757;89280;ego store official Tokopedia reguler
INV/20240107/MPL/3667079744;33670;ego store official Tokopedia reguler
INV/20240104/MPL/3662816097;56345;ego store official Tokopedia reguler
INV/20240106/MPL/3665299697;89466;ego store official Tokopedia reguler
INV/20240107/MPL/3667260951;577200;ego store official Tokopedia reguler
INV/20240108/MPL/3669529537;288600;ego store official Tokopedia reguler
INV/20240108/MPL/3669529537;290000;ego store official Tokopedia reguler
INV/20240108/MPL/3669045103;112690;ego store official Tokopedia reguler
INV/20240108/MPL/3669045103;113280;ego store official Tokopedia reguler
INV/20240109/MPL/3671157561;577200;ego store official Tokopedia reguler
INV/20240109/MPL/3670195824;149110;ego store official Tokopedia reguler
INV/20240109/MPL/3670671925;33670;ego store official Tokopedia reguler
INV/20240108/MPL/3668816017;112690;ego store official Tokopedia reguler
INV/20240109/MPL/3671349357;178932;ego store official Tokopedia reguler
INV/20240109/MPL/3671349357;178560;ego store official Tokopedia reguler
INV/20240109/MPL/3670156032;112690;ego store official Tokopedia reguler
INV/20240109/MPL/3670156032;113280;ego store official Tokopedia reguler
INV/20240109/MPL/3671290201;33670;ego store official Tokopedia reguler
INV/20240109/MPL/3671290201;33600;ego store official Tokopedia reguler
INV/20240106/MPL/3666175489;851370;ego store official Tokopedia reguler
INV/20240106/MPL/3666175489;865000;ego store official Tokopedia reguler
INV/20240109/MPL/3670185970;149110;ego store official Tokopedia reguler
INV/20240109/MPL/3670185970;148800;ego store official Tokopedia reguler
INV/20240111/MPL/3674509257;89466;ego store official Tokopedia reguler
INV/20240106/MPL/3666086721;112690;ego store official Tokopedia reguler
INV/20240110/MPL/3672107361;178932;ego store official Tokopedia reguler
INV/20240112/MPL/3676074343;149110;ego store official Tokopedia reguler
INV/20240110/MPL/3672489027;89466;ego store official Tokopedia reguler
INV/20240110/MPL/3672560144;89466;ego store official Tokopedia reguler
INV/20240108/MPL/3669952758;67340;ego store official Tokopedia reguler
INV/20240108/MPL/3669952758;67200;ego store official Tokopedia reguler
INV/20240107/MPL/3666643984;548340;ego store official Tokopedia reguler
INV/20240112/MPL/3676569285;89466;ego store official Tokopedia reguler
INV/20240107/MPL/3667692629;89466;ego store official Tokopedia reguler
INV/20240107/MPL/3667692629;89280;ego store official Tokopedia reguler
INV/20240108/MPL/3669808191;56345;ego store official Tokopedia reguler
INV/20240108/MPL/3669808191;56640;ego store official Tokopedia reguler
INV/20240111/MPL/3674586431;288600;ego store official Tokopedia reguler
INV/20240109/MPL/3671471629;283790;ego store official Tokopedia reguler
INV/20240109/MPL/3671471629;285000;ego store official Tokopedia reguler
INV/20240109/MPL/3671471629;283790;ego store official Tokopedia reguler
INV/20240109/MPL/3671471629;285000;ego store official Tokopedia reguler
INV/20240111/MPL/3674778861;67340;ego store official Tokopedia reguler
INV/20240109/MPL/3671644550;89466;ego store official Tokopedia reguler
INV/20240109/MPL/3671644550;89280;ego store official Tokopedia reguler
INV/20240111/MPL/3674456019;33670;ego store official Tokopedia reguler
INV/20240110/MPL/3673566658;89466;ego store official Tokopedia reguler
INV/20240110/MPL/3673566658;89280;ego store official Tokopedia reguler
INV/20240110/MPL/3673060126;89466;ego store official Tokopedia reguler
INV/20240110/MPL/3673060126;89280;ego store official Tokopedia reguler
INV/20240111/MPL/3674133142;288600;ego store official Tokopedia reguler
INV/20240111/MPL/3674133142;290000;ego store official Tokopedia reguler
INV/20240110/MPL/3673170567;112690;ego store official Tokopedia reguler
INV/20240110/MPL/3673170567;113280;ego store official Tokopedia reguler
INV/20240108/MPL/3668892075;89466;ego store official Tokopedia reguler
INV/20240108/MPL/3668892075;89280;ego store official Tokopedia reguler
INV/20240112/MPL/3675947086;89466;ego store official Tokopedia reguler
INV/20240112/MPL/3675947086;89280;ego store official Tokopedia reguler
INV/20240109/MPL/3671441089;283790;ego store official Tokopedia reguler
INV/20240109/MPL/3671441089;285000;ego store official Tokopedia reguler
INV/20240109/MPL/3671530369;548340;ego store official Tokopedia reguler
INV/20240109/MPL/3671530369;560000;ego store official Tokopedia reguler
INV/20240110/MPL/3672094593;89466;ego store official Tokopedia reguler
INV/20240110/MPL/3672094593;89280;ego store official Tokopedia reguler
INV/20240112/MPL/3675721666;101010;ego store official Tokopedia reguler
INV/20240112/MPL/3676743747;149110;ego store official Tokopedia reguler
INV/20240112/MPL/3676890565;89466;ego store official Tokopedia reguler
INV/20240111/MPL/3675130897;149110;ego store official Tokopedia reguler
INV/20240111/MPL/3675130897;148800;ego store official Tokopedia reguler
INV/20240113/MPL/3677612177;288600;ego store official Tokopedia reguler
INV/20240111/MPL/3675008991;101010;ego store official Tokopedia reguler
INV/20240111/MPL/3675008991;100800;ego store official Tokopedia reguler
INV/20240113/MPL/3677773300;89466;ego store official Tokopedia reguler
INV/20240115/MPL/3680907811;89466;ego store official Tokopedia reguler
INV/20240115/MPL/3680907811;89280;ego store official Tokopedia reguler
INV/20240115/MPL/3680610553;288600;ego store official Tokopedia reguler
INV/20240113/MPL/3677473476;182780;ego store official Tokopedia reguler
INV/20240114/MPL/3679932354;89466;ego store official Tokopedia reguler
INV/20240115/MPL/3680397174;288600;ego store official Tokopedia reguler
INV/20240116/MPL/3682426119;89466;ego store official Tokopedia reguler
INV/20240116/MPL/3682426119;89280;ego store official Tokopedia reguler
INV/20240115/MPL/3681227369;89466;ego store official Tokopedia reguler
INV/20240112/MPL/3676015403;89466;ego store official Tokopedia reguler
INV/20240115/MPL/3681227369;149110;ego store official Tokopedia reguler
INV/20240112/MPL/3676015403;149110;ego store official Tokopedia reguler
INV/20240112/MPL/3676015403;112690;ego store official Tokopedia reguler
INV/20240115/MPL/3681774579;89466;ego store official Tokopedia reguler
INV/20240115/MPL/3681774579;89280;ego store official Tokopedia reguler
INV/20240114/MPL/3680326136;288600;ego store official Tokopedia reguler
INV/20240115/MPL/3681737252;112690;ego store official Tokopedia reguler
INV/20240111/MPL/3673942402;149110;ego store official Tokopedia reguler
INV/20240111/MPL/3673942402;148800;ego store official Tokopedia reguler
INV/20240114/MPL/3680119508;33670;ego store official Tokopedia reguler
INV/20240114/MPL/3680119508;33600;ego store official Tokopedia reguler
INV/20240114/MPL/3680119508;33670;ego store official Tokopedia reguler
INV/20240114/MPL/3680119508;33600;ego store official Tokopedia reguler
INV/20240116/MPL/3683498233;288600;ego store official Tokopedia reguler
INV/20240116/MPL/3683498233;290000;ego store official Tokopedia reguler
INV/20240113/MPL/3677909434;33670;ego store official Tokopedia reguler
INV/20240113/MPL/3677909434;33600;ego store official Tokopedia reguler
INV/20240115/MPL/3681090410;89466;ego store official Tokopedia reguler
INV/20240115/MPL/3681090410;89280;ego store official Tokopedia reguler
INV/20240114/MPL/3680255096;89466;ego store official Tokopedia reguler
INV/20240114/MPL/3680255096;89280;ego store official Tokopedia reguler
INV/20240114/MPL/3680255096;95238;ego store official Tokopedia reguler
INV/20240114/MPL/3680255096;95040;ego store official Tokopedia reguler
INV/20240116/MPL/3683487682;89466;ego store official Tokopedia reguler
INV/20240114/MPL/3678981402;56345;ego store official Tokopedia reguler
INV/20240114/MPL/3678981402;56640;ego store official Tokopedia reguler
INV/20240118/MPL/3686914178;67340;ego store official Tokopedia reguler
INV/20240118/MPL/3686914178;67200;ego store official Tokopedia reguler
INV/20240116/MPL/3683650252;89466;ego store official Tokopedia reguler
INV/20240116/MPL/3683650252;89280;ego store official Tokopedia reguler
INV/20240116/MPL/3683619218;112690;ego store official Tokopedia reguler
INV/20240116/MPL/3683619218;113280;ego store official Tokopedia reguler
INV/20240118/MPL/3687917332;89466;ego store official Tokopedia reguler
INV/20240116/MPL/3683497956;23875;ego store official Tokopedia reguler
INV/20240116/MPL/3683497956;24000;ego store official Tokopedia reguler
INV/20240116/MPL/3683497956;112690;ego store official Tokopedia reguler
INV/20240116/MPL/3683497956;113280;ego store official Tokopedia reguler
INV/20240114/MPL/3679121785;264550;ego store official Tokopedia reguler
INV/20240114/MPL/3679121785;265000;ego store official Tokopedia reguler
INV/20240116/MPL/3683579305;112690;ego store official Tokopedia reguler
INV/20240119/MPL/3688852691;149110;ego store official Tokopedia reguler
INV/20240117/MPL/3685984544;56345;ego store official Tokopedia reguler
INV/20240117/MPL/3685984544;56640;ego store official Tokopedia reguler
INV/20240117/MPL/3684993623;336700;ego store official Tokopedia reguler
INV/20240117/MPL/3684993623;340000;ego store official Tokopedia reguler
INV/20240118/MPL/3686158072;178932;ego store official Tokopedia reguler
INV/20240115/MPL/3681325892;89466;ego store official Tokopedia reguler
INV/20240115/MPL/3681325892;89280;ego store official Tokopedia reguler
INV/20240117/MPL/3685999980;288600;ego store official Tokopedia reguler
INV/20240117/MPL/3684398714;56345;ego store official Tokopedia reguler
INV/20240117/MPL/3684398714;56640;ego store official Tokopedia reguler
INV/20240115/MPL/3681928775;283790;ego store official Tokopedia reguler
INV/20240115/MPL/3681928775;285000;ego store official Tokopedia reguler
INV/20240117/MPL/3684509187;577200;ego store official Tokopedia reguler
INV/20240117/MPL/3684509187;590000;ego store official Tokopedia reguler
INV/20240118/MPL/3686583619;23875;ego store official Tokopedia reguler
INV/20240120/MPL/3689999083;47750;ego store official Tokopedia reguler
INV/20240120/MPL/3689999083;48000;ego store official Tokopedia reguler
INV/20240118/MPL/3687591051;288600;ego store official Tokopedia reguler
INV/20240118/MPL/3687591051;290000;ego store official Tokopedia reguler
INV/20240119/MPL/3688263912;336700;ego store official Tokopedia reguler
INV/20240119/MPL/3688263912;340000;ego store official Tokopedia reguler
INV/20240120/MPL/3690208983;89466;ego store official Tokopedia reguler
INV/20240120/MPL/3690208983;89280;ego store official Tokopedia reguler
INV/20240120/MPL/3690654494;112690;ego store official Tokopedia reguler
INV/20240120/MPL/3690654494;113280;ego store official Tokopedia reguler
INV/20240118/MPL/3686328612;178932;ego store official Tokopedia reguler
INV/20240118/MPL/3686328612;178560;ego store official Tokopedia reguler
INV/20240119/MPL/3689274990;288600;ego store official Tokopedia reguler
INV/20240119/MPL/3689274990;288600;ego store official Tokopedia reguler
INV/20240119/MPL/3688278450;89466;ego store official Tokopedia reguler
INV/20240119/MPL/3688278450;89280;ego store official Tokopedia reguler
INV/20240120/MPL/3690377805;264550;ego store official Tokopedia reguler
INV/20240120/MPL/3690377805;265000;ego store official Tokopedia reguler
INV/20240119/MPL/3687982619;548340;ego store official Tokopedia reguler
INV/20240119/MPL/3687982619;560000;ego store official Tokopedia reguler
INV/20240120/MPL/3690414767;56345;ego store official Tokopedia reguler
INV/20240120/MPL/3690414767;56640;ego store official Tokopedia reguler
INV/20240120/MPL/3690232836;178932;ego store official Tokopedia reguler
INV/20240119/MPL/3688336113;89466;ego store official Tokopedia reguler
INV/20240119/MPL/3688336113;89280;ego store official Tokopedia reguler
INV/20240120/MPL/3690978428;288600;ego store official Tokopedia reguler
INV/20240121/MPL/3691883466;89466;ego store official Tokopedia reguler
INV/20240122/MPL/3693519144;288600;ego store official Tokopedia reguler
INV/20240120/MPL/3690789880;89466;ego store official Tokopedia reguler
INV/20240120/MPL/3690789880;89280;ego store official Tokopedia reguler
INV/20240122/MPL/3693097099;563450;ego store official Tokopedia reguler
INV/20240120/MPL/3690723715;793650;ego store official Tokopedia reguler
INV/20240120/MPL/3690723715;805000;ego store official Tokopedia reguler
INV/20240119/MPL/3689591002;89466;ego store official Tokopedia reguler
INV/20240119/MPL/3689591002;89280;ego store official Tokopedia reguler
INV/20240123/MPL/3695725115;288600;ego store official Tokopedia reguler
INV/20240123/MPL/3695725115;290000;ego store official Tokopedia reguler
INV/20240121/MPL/3691383746;67340;ego store official Tokopedia reguler
INV/20240121/MPL/3691383746;67200;ego store official Tokopedia reguler
INV/20240122/MPL/3692920385;112690;ego store official Tokopedia reguler
INV/20240122/MPL/3692920385;113280;ego store official Tokopedia reguler
INV/20240120/MPL/3690254879;33425;ego store official Tokopedia reguler
INV/20240120/MPL/3690254879;33600;ego store official Tokopedia reguler
INV/20240120/MPL/3690254879;56345;ego store official Tokopedia reguler
INV/20240120/MPL/3690254879;56640;ego store official Tokopedia reguler
INV/20240119/MPL/3689546542;33670;ego store official Tokopedia reguler
INV/20240119/MPL/3689546542;33600;ego store official Tokopedia reguler
INV/20240123/MPL/3695083464;101010;ego store official Tokopedia reguler
INV/20240123/MPL/3695083464;100800;ego store official Tokopedia reguler
INV/20240121/MPL/3692499333;178932;ego store official Tokopedia reguler
INV/20240123/MPL/3695303243;33670;ego store official Tokopedia reguler
INV/20240123/MPL/3695303243;33670;ego store official Tokopedia reguler
INV/20240123/MPL/3695290249;101010;ego store official Tokopedia reguler
INV/20240123/MPL/3695290249;89466;ego store official Tokopedia reguler
INV/20240121/MPL/3691508537;264550;ego store official Tokopedia reguler
INV/20240123/MPL/3695349639;33670;ego store official Tokopedia reguler
INV/20240118/MPL/3686787266;283790;ego store official Tokopedia reguler
INV/20240118/MPL/3686787266;283790;ego store official Tokopedia reguler
INV/20240122/MPL/3692850129;89466;ego store official Tokopedia reguler
INV/20240123/MPL/3695355789;89466;ego store official Tokopedia reguler
INV/20240123/MPL/3695355789;89280;ego store official Tokopedia reguler
INV/20240125/MPL/3698895449;89466;ego store official Tokopedia reguler
INV/20240126/MPL/3701227934;33670;ego store official Tokopedia reguler
INV/20240126/MPL/3701227934;33670;ego store official Tokopedia reguler
INV/20240124/MPL/3697594661;288600;ego store official Tokopedia reguler
INV/20240122/MPL/3693983667;89466;ego store official Tokopedia reguler
INV/20240122/MPL/3693983667;89280;ego store official Tokopedia reguler
INV/20240126/MPL/3701977959;89466;ego store official Tokopedia reguler
INV/20240124/MPL/3698576029;281725;ego store official Tokopedia reguler
INV/20240124/MPL/3698576029;285000;ego store official Tokopedia reguler
INV/20240122/MPL/3694566857;89466;ego store official Tokopedia reguler
INV/20240122/MPL/3694566857;89280;ego store official Tokopedia reguler
INV/20240123/MPL/3696503964;89466;ego store official Tokopedia reguler
INV/20240122/MPL/3693000372;67340;ego store official Tokopedia reguler
INV/20240122/MPL/3693000372;67200;ego store official Tokopedia reguler
INV/20240125/MPL/3699144988;89466;ego store official Tokopedia reguler
INV/20240125/MPL/3699557000;288600;ego store official Tokopedia reguler
INV/20240125/MPL/3698733430;288600;ego store official Tokopedia reguler
INV/20240126/MPL/3701378787;288600;ego store official Tokopedia reguler
INV/20240124/MPL/3697242925;281725;ego store official Tokopedia reguler
INV/20240121/MPL/3691805339;89466;ego store official Tokopedia reguler
INV/20240121/MPL/3691805339;89280;ego store official Tokopedia reguler
INV/20240123/MPL/3695465533;281725;ego store official Tokopedia reguler
INV/20240126/MPL/3701982196;283790;ego store official Tokopedia reguler
INV/20240126/MPL/3701982196;285000;ego store official Tokopedia reguler
INV/20240126/MPL/3701583864;56345;ego store official Tokopedia reguler
INV/20240126/MPL/3701583864;56640;ego store official Tokopedia reguler
INV/20240125/MPL/3700866444;33670;ego store official Tokopedia reguler
INV/20240125/MPL/3700866444;33600;ego store official Tokopedia reguler
INV/20240125/MPL/3700866444;56758;ego store official Tokopedia reguler
INV/20240125/MPL/3700866444;56640;ego store official Tokopedia reguler
INV/20240125/MPL/3700004989;357864;ego store official Tokopedia reguler
INV/20240125/MPL/3700004989;357120;ego store official Tokopedia reguler
INV/20240126/MPL/3701666502;178932;ego store official Tokopedia reguler
INV/20240126/MPL/3702066083;89466;ego store official Tokopedia reguler
INV/20240128/MPL/3705831637;288600;ego store official Tokopedia reguler
INV/20240123/MPL/3696493414;89466;ego store official Tokopedia reguler
INV/20240123/MPL/3696493414;89280;ego store official Tokopedia reguler
INV/20240127/MPL/3703494252;33670;ego store official Tokopedia reguler
INV/20240126/MPL/3702268254;112690;ego store official Tokopedia reguler
INV/20240126/MPL/3702268254;113280;ego store official Tokopedia reguler
INV/20240126/MPL/3702024737;548340;ego store official Tokopedia reguler
INV/20240125/MPL/3700797414;283790;ego store official Tokopedia reguler
INV/20240125/MPL/3700797414;285000;ego store official Tokopedia reguler
INV/20240125/MPL/3700450723;56345;ego store official Tokopedia reguler
INV/20240127/MPL/3702987467;33670;ego store official Tokopedia reguler
INV/20240127/MPL/3702987467;33600;ego store official Tokopedia reguler
INV/20240127/MPL/3702987467;112690;ego store official Tokopedia reguler
INV/20240127/MPL/3702987467;113280;ego store official Tokopedia reguler
INV/20240126/MPL/3702454259;33670;ego store official Tokopedia reguler
INV/20240126/MPL/3702454259;33600;ego store official Tokopedia reguler
INV/20240126/MPL/3702454259;56345;ego store official Tokopedia reguler
INV/20240126/MPL/3702454259;56640;ego store official Tokopedia reguler
INV/20240127/MPL/3704125895;288600;ego store official Tokopedia reguler
INV/20240127/MPL/3704125895;290000;ego store official Tokopedia reguler
INV/20240126/MPL/3701220204;89466;ego store official Tokopedia reguler
INV/20240130/MPL/3710467403;89466;ego store official Tokopedia reguler
INV/20240130/MPL/3710467403;89280;ego store official Tokopedia reguler
INV/20240130/MPL/3709940350;89466;ego store official Tokopedia reguler
INV/20240130/MPL/3710260849;178932;ego store official Tokopedia reguler
INV/20240127/MPL/3703184434;264550;ego store official Tokopedia reguler
INV/20240127/MPL/3703184434;265000;ego store official Tokopedia reguler
INV/20240129/MPL/3708371004;56345;ego store official Tokopedia reguler
INV/20240131/MPL/3712096929;89466;ego store official Tokopedia reguler
INV/20240131/MPL/3712096929;89280;ego store official Tokopedia reguler
INV/20240128/MPL/3706218750;336700;ego store official Tokopedia reguler
INV/20240127/MPL/3703804454;112690;ego store official Tokopedia reguler
INV/20240127/MPL/3703804454;113280;ego store official Tokopedia reguler
INV/20240128/MPL/3706376923;89466;ego store official Tokopedia reguler
INV/20240128/MPL/3706376923;89280;ego store official Tokopedia reguler
INV/20240130/MPL/3709734147;33670;ego store official Tokopedia reguler
INV/20240130/MPL/3709734147;33600;ego store official Tokopedia reguler
INV/20240127/MPL/3704221468;89466;ego store official Tokopedia reguler
INV/20240127/MPL/3704221468;89280;ego store official Tokopedia reguler